('/home/ryuta/デスクトップ/gitlab/chuntaKaruta/dist/chuntaKaruta',
 False,
 False,
 False,
 None,
 None,
 False,
 False,
 None,
 True,
 None,
 None,
 None,
 'chuntaKaruta.pkg',
 [('PYZ-00.pyz',
   '/home/ryuta/デスクトップ/gitlab/chuntaKaruta/build/chuntaKaruta/PYZ-00.pyz',
   'PYZ'),
  ('struct',
   '/home/ryuta/デスクトップ/gitlab/chuntaKaruta/build/chuntaKaruta/localpycos/struct.pyo',
   'PYMODULE'),
  ('pyimod01_os_path',
   '/home/ryuta/.local/lib/python3.8/site-packages/PyInstaller/loader/pyimod01_os_path.pyc',
   'PYMODULE'),
  ('pyimod02_archive',
   '/home/ryuta/.local/lib/python3.8/site-packages/PyInstaller/loader/pyimod02_archive.pyc',
   'PYMODULE'),
  ('pyimod03_importers',
   '/home/ryuta/.local/lib/python3.8/site-packages/PyInstaller/loader/pyimod03_importers.pyc',
   'PYMODULE'),
  ('pyimod04_ctypes',
   '/home/ryuta/.local/lib/python3.8/site-packages/PyInstaller/loader/pyimod04_ctypes.pyc',
   'PYMODULE'),
  ('pyiboot01_bootstrap',
   '/home/ryuta/.local/lib/python3.8/site-packages/PyInstaller/loader/pyiboot01_bootstrap.py',
   'PYSOURCE'),
  ('pyi_rth_pkgutil',
   '/home/ryuta/.local/lib/python3.8/site-packages/PyInstaller/hooks/rthooks/pyi_rth_pkgutil.py',
   'PYSOURCE'),
  ('pyi_rth_multiprocessing',
   '/home/ryuta/.local/lib/python3.8/site-packages/PyInstaller/hooks/rthooks/pyi_rth_multiprocessing.py',
   'PYSOURCE'),
  ('pyi_rth_inspect',
   '/home/ryuta/.local/lib/python3.8/site-packages/PyInstaller/hooks/rthooks/pyi_rth_inspect.py',
   'PYSOURCE'),
  ('pyi_rth_gstreamer',
   '/home/ryuta/.local/lib/python3.8/site-packages/PyInstaller/hooks/rthooks/pyi_rth_gstreamer.py',
   'PYSOURCE'),
  ('pyi_rth_gio',
   '/home/ryuta/.local/lib/python3.8/site-packages/PyInstaller/hooks/rthooks/pyi_rth_gio.py',
   'PYSOURCE'),
  ('pyi_rth_glib',
   '/home/ryuta/.local/lib/python3.8/site-packages/PyInstaller/hooks/rthooks/pyi_rth_glib.py',
   'PYSOURCE'),
  ('pyi_rth_gi',
   '/home/ryuta/.local/lib/python3.8/site-packages/PyInstaller/hooks/rthooks/pyi_rth_gi.py',
   'PYSOURCE'),
  ('pyi_rth__tkinter',
   '/home/ryuta/.local/lib/python3.8/site-packages/PyInstaller/hooks/rthooks/pyi_rth__tkinter.py',
   'PYSOURCE'),
  ('chuntaKaruta',
   '/home/ryuta/デスクトップ/gitlab/chuntaKaruta/chuntaKaruta.py',
   'PYSOURCE'),
  ('libexpat.so.1', '/lib/x86_64-linux-gnu/libexpat.so.1', 'BINARY'),
  ('libz.so.1', '/lib/x86_64-linux-gnu/libz.so.1', 'BINARY'),
  ('gio_modules/libgioremote-volume-monitor.so',
   '/lib/x86_64-linux-gnu/gio/modules/libgioremote-volume-monitor.so',
   'BINARY'),
  ('gio_modules/libdconfsettings.so',
   '/lib/x86_64-linux-gnu/gio/modules/libdconfsettings.so',
   'BINARY'),
  ('gst_plugins/libgstcompositor.so',
   '/usr/lib/x86_64-linux-gnu/gstreamer-1.0/libgstcompositor.so',
   'BINARY'),
  ('gst_plugins/libgstmpg123.so',
   '/usr/lib/x86_64-linux-gnu/gstreamer-1.0/libgstmpg123.so',
   'BINARY'),
  ('gst_plugins/libgstspectrum.so',
   '/usr/lib/x86_64-linux-gnu/gstreamer-1.0/libgstspectrum.so',
   'BINARY'),
  ('gst_plugins/libgstshout2.so',
   '/usr/lib/x86_64-linux-gnu/gstreamer-1.0/libgstshout2.so',
   'BINARY'),
  ('gst_plugins/libgstsubparse.so',
   '/usr/lib/x86_64-linux-gnu/gstreamer-1.0/libgstsubparse.so',
   'BINARY'),
  ('gst_plugins/libgstcdparanoia.so',
   '/usr/lib/x86_64-linux-gnu/gstreamer-1.0/libgstcdparanoia.so',
   'BINARY'),
  ('gst_plugins/libgstdtmf.so',
   '/usr/lib/x86_64-linux-gnu/gstreamer-1.0/libgstdtmf.so',
   'BINARY'),
  ('gst_plugins/libgstavi.so',
   '/usr/lib/x86_64-linux-gnu/gstreamer-1.0/libgstavi.so',
   'BINARY'),
  ('libgstreamer-1.0.so.0',
   '/lib/x86_64-linux-gnu/libgstreamer-1.0.so.0',
   'BINARY'),
  ('gst_plugins/libgstgio.so',
   '/usr/lib/x86_64-linux-gnu/gstreamer-1.0/libgstgio.so',
   'BINARY'),
  ('gst_plugins/libgstjack.so',
   '/usr/lib/x86_64-linux-gnu/gstreamer-1.0/libgstjack.so',
   'BINARY'),
  ('gst_plugins/libgstwavparse.so',
   '/usr/lib/x86_64-linux-gnu/gstreamer-1.0/libgstwavparse.so',
   'BINARY'),
  ('gst_plugins/libgstoss4.so',
   '/usr/lib/x86_64-linux-gnu/gstreamer-1.0/libgstoss4.so',
   'BINARY'),
  ('gst_plugins/libgstrtsp.so',
   '/usr/lib/x86_64-linux-gnu/gstreamer-1.0/libgstrtsp.so',
   'BINARY'),
  ('gst_plugins/libgstximagesink.so',
   '/usr/lib/x86_64-linux-gnu/gstreamer-1.0/libgstximagesink.so',
   'BINARY'),
  ('gst_plugins/libgsticydemux.so',
   '/usr/lib/x86_64-linux-gnu/gstreamer-1.0/libgsticydemux.so',
   'BINARY'),
  ('gst_plugins/libgstmatroska.so',
   '/usr/lib/x86_64-linux-gnu/gstreamer-1.0/libgstmatroska.so',
   'BINARY'),
  ('gst_plugins/libgstinterleave.so',
   '/usr/lib/x86_64-linux-gnu/gstreamer-1.0/libgstinterleave.so',
   'BINARY'),
  ('gst_plugins/libgstvideoconvert.so',
   '/usr/lib/x86_64-linux-gnu/gstreamer-1.0/libgstvideoconvert.so',
   'BINARY'),
  ('gst_plugins/libgstossaudio.so',
   '/usr/lib/x86_64-linux-gnu/gstreamer-1.0/libgstossaudio.so',
   'BINARY'),
  ('gst_plugins/libgstvideocrop.so',
   '/usr/lib/x86_64-linux-gnu/gstreamer-1.0/libgstvideocrop.so',
   'BINARY'),
  ('gst_plugins/libgstalsa.so',
   '/usr/lib/x86_64-linux-gnu/gstreamer-1.0/libgstalsa.so',
   'BINARY'),
  ('gst_plugins/libgstopengl.so',
   '/usr/lib/x86_64-linux-gnu/gstreamer-1.0/libgstopengl.so',
   'BINARY'),
  ('gst_plugins/libgstequalizer.so',
   '/usr/lib/x86_64-linux-gnu/gstreamer-1.0/libgstequalizer.so',
   'BINARY'),
  ('gst_plugins/libgstsoup.so',
   '/usr/lib/x86_64-linux-gnu/gstreamer-1.0/libgstsoup.so',
   'BINARY'),
  ('gst_plugins/libgstlevel.so',
   '/usr/lib/x86_64-linux-gnu/gstreamer-1.0/libgstlevel.so',
   'BINARY'),
  ('gst_plugins/libgstaudiorate.so',
   '/usr/lib/x86_64-linux-gnu/gstreamer-1.0/libgstaudiorate.so',
   'BINARY'),
  ('gst_plugins/libgstcamerabin.so',
   '/usr/lib/x86_64-linux-gnu/gstreamer-1.0/libgstcamerabin.so',
   'BINARY'),
  ('gst_plugins/libgstimagefreeze.so',
   '/usr/lib/x86_64-linux-gnu/gstreamer-1.0/libgstimagefreeze.so',
   'BINARY'),
  ('gst_plugins/libgstaudiomixer.so',
   '/usr/lib/x86_64-linux-gnu/gstreamer-1.0/libgstaudiomixer.so',
   'BINARY'),
  ('gst_plugins/libgstadder.so',
   '/usr/lib/x86_64-linux-gnu/gstreamer-1.0/libgstadder.so',
   'BINARY'),
  ('gst_plugins/libgstvideoscale.so',
   '/usr/lib/x86_64-linux-gnu/gstreamer-1.0/libgstvideoscale.so',
   'BINARY'),
  ('gst_plugins/libgstogg.so',
   '/usr/lib/x86_64-linux-gnu/gstreamer-1.0/libgstogg.so',
   'BINARY'),
  ('libgobject-2.0.so.0',
   '/lib/x86_64-linux-gnu/libgobject-2.0.so.0',
   'BINARY'),
  ('gst_plugins/libgstcacasink.so',
   '/usr/lib/x86_64-linux-gnu/gstreamer-1.0/libgstcacasink.so',
   'BINARY'),
  ('gst_plugins/libgstisomp4.so',
   '/usr/lib/x86_64-linux-gnu/gstreamer-1.0/libgstisomp4.so',
   'BINARY'),
  ('gst_plugins/libgstdebug.so',
   '/usr/lib/x86_64-linux-gnu/gstreamer-1.0/libgstdebug.so',
   'BINARY'),
  ('gst_plugins/libgstauparse.so',
   '/usr/lib/x86_64-linux-gnu/gstreamer-1.0/libgstauparse.so',
   'BINARY'),
  ('gst_plugins/libgstautodetect.so',
   '/usr/lib/x86_64-linux-gnu/gstreamer-1.0/libgstautodetect.so',
   'BINARY'),
  ('gst_plugins/libgstvideobox.so',
   '/usr/lib/x86_64-linux-gnu/gstreamer-1.0/libgstvideobox.so',
   'BINARY'),
  ('gst_plugins/libgstlame.so',
   '/usr/lib/x86_64-linux-gnu/gstreamer-1.0/libgstlame.so',
   'BINARY'),
  ('gst_plugins/libgstudp.so',
   '/usr/lib/x86_64-linux-gnu/gstreamer-1.0/libgstudp.so',
   'BINARY'),
  ('gst_plugins/libgstaudioresample.so',
   '/usr/lib/x86_64-linux-gnu/gstreamer-1.0/libgstaudioresample.so',
   'BINARY'),
  ('gst_plugins/libgstvideorate.so',
   '/usr/lib/x86_64-linux-gnu/gstreamer-1.0/libgstvideorate.so',
   'BINARY'),
  ('gst_plugins/libgstmultifile.so',
   '/usr/lib/x86_64-linux-gnu/gstreamer-1.0/libgstmultifile.so',
   'BINARY'),
  ('gst_plugins/libgstpng.so',
   '/usr/lib/x86_64-linux-gnu/gstreamer-1.0/libgstpng.so',
   'BINARY'),
  ('gio_modules/libgiolibproxy.so',
   '/lib/x86_64-linux-gnu/gio/modules/libgiolibproxy.so',
   'BINARY'),
  ('gst_plugins/libgstcutter.so',
   '/usr/lib/x86_64-linux-gnu/gstreamer-1.0/libgstcutter.so',
   'BINARY'),
  ('gst_plugins/libgstplayback.so',
   '/usr/lib/x86_64-linux-gnu/gstreamer-1.0/libgstplayback.so',
   'BINARY'),
  ('gst_plugins/libgstpango.so',
   '/usr/lib/x86_64-linux-gnu/gstreamer-1.0/libgstpango.so',
   'BINARY'),
  ('gst_plugins/libgsteffectv.so',
   '/usr/lib/x86_64-linux-gnu/gstreamer-1.0/libgsteffectv.so',
   'BINARY'),
  ('gst_plugins/libgstmultipart.so',
   '/usr/lib/x86_64-linux-gnu/gstreamer-1.0/libgstmultipart.so',
   'BINARY'),
  ('gst_plugins/libgstvolume.so',
   '/usr/lib/x86_64-linux-gnu/gstreamer-1.0/libgstvolume.so',
   'BINARY'),
  ('gst_plugins/libgstoverlaycomposition.so',
   '/usr/lib/x86_64-linux-gnu/gstreamer-1.0/libgstoverlaycomposition.so',
   'BINARY'),
  ('gio_modules/libgvfsdbus.so',
   '/lib/x86_64-linux-gnu/gio/modules/libgvfsdbus.so',
   'BINARY'),
  ('gst_plugins/libgstvpx.so',
   '/usr/lib/x86_64-linux-gnu/gstreamer-1.0/libgstvpx.so',
   'BINARY'),
  ('gst_plugins/libgstflxdec.so',
   '/usr/lib/x86_64-linux-gnu/gstreamer-1.0/libgstflxdec.so',
   'BINARY'),
  ('gst_plugins/libgstaudioparsers.so',
   '/usr/lib/x86_64-linux-gnu/gstreamer-1.0/libgstaudioparsers.so',
   'BINARY'),
  ('gst_plugins/libgstjpegformat.so',
   '/usr/lib/x86_64-linux-gnu/gstreamer-1.0/libgstjpegformat.so',
   'BINARY'),
  ('gst_plugins/libgstreplaygain.so',
   '/usr/lib/x86_64-linux-gnu/gstreamer-1.0/libgstreplaygain.so',
   'BINARY'),
  ('gst_plugins/libgstshapewipe.so',
   '/usr/lib/x86_64-linux-gnu/gstreamer-1.0/libgstshapewipe.so',
   'BINARY'),
  ('gst_plugins/libgstrawparse.so',
   '/usr/lib/x86_64-linux-gnu/gstreamer-1.0/libgstrawparse.so',
   'BINARY'),
  ('gst_plugins/libgstaasink.so',
   '/usr/lib/x86_64-linux-gnu/gstreamer-1.0/libgstaasink.so',
   'BINARY'),
  ('gst_plugins/libgst1394.so',
   '/usr/lib/x86_64-linux-gnu/gstreamer-1.0/libgst1394.so',
   'BINARY'),
  ('gst_plugins/libgstspeex.so',
   '/usr/lib/x86_64-linux-gnu/gstreamer-1.0/libgstspeex.so',
   'BINARY'),
  ('gst_plugins/libgstrtpmanager.so',
   '/usr/lib/x86_64-linux-gnu/gstreamer-1.0/libgstrtpmanager.so',
   'BINARY'),
  ('gst_plugins/libgstapetag.so',
   '/usr/lib/x86_64-linux-gnu/gstreamer-1.0/libgstapetag.so',
   'BINARY'),
  ('gst_plugins/libgstwavenc.so',
   '/usr/lib/x86_64-linux-gnu/gstreamer-1.0/libgstwavenc.so',
   'BINARY'),
  ('gst_plugins/libgstgoom.so',
   '/usr/lib/x86_64-linux-gnu/gstreamer-1.0/libgstgoom.so',
   'BINARY'),
  ('gst_plugins/libgsttaglib.so',
   '/usr/lib/x86_64-linux-gnu/gstreamer-1.0/libgsttaglib.so',
   'BINARY'),
  ('gst_plugins/libgstaudiofx.so',
   '/usr/lib/x86_64-linux-gnu/gstreamer-1.0/libgstaudiofx.so',
   'BINARY'),
  ('gst_plugins/libgstvideo4linux2.so',
   '/usr/lib/x86_64-linux-gnu/gstreamer-1.0/libgstvideo4linux2.so',
   'BINARY'),
  ('gst_plugins/libgstwavpack.so',
   '/usr/lib/x86_64-linux-gnu/gstreamer-1.0/libgstwavpack.so',
   'BINARY'),
  ('gst_plugins/libgstmulaw.so',
   '/usr/lib/x86_64-linux-gnu/gstreamer-1.0/libgstmulaw.so',
   'BINARY'),
  ('gst_plugins/libgsttypefindfunctions.so',
   '/usr/lib/x86_64-linux-gnu/gstreamer-1.0/libgsttypefindfunctions.so',
   'BINARY'),
  ('gst_plugins/libgstrtp.so',
   '/usr/lib/x86_64-linux-gnu/gstreamer-1.0/libgstrtp.so',
   'BINARY'),
  ('gst_plugins/libgstxvimagesink.so',
   '/usr/lib/x86_64-linux-gnu/gstreamer-1.0/libgstxvimagesink.so',
   'BINARY'),
  ('gst_plugins/libgstflac.so',
   '/usr/lib/x86_64-linux-gnu/gstreamer-1.0/libgstflac.so',
   'BINARY'),
  ('gst_plugins/libgstdeinterlace.so',
   '/usr/lib/x86_64-linux-gnu/gstreamer-1.0/libgstdeinterlace.so',
   'BINARY'),
  ('gst_plugins/libgstpulseaudio.so',
   '/usr/lib/x86_64-linux-gnu/gstreamer-1.0/libgstpulseaudio.so',
   'BINARY'),
  ('gst_plugins/libgstlibvisual.so',
   '/usr/lib/x86_64-linux-gnu/gstreamer-1.0/libgstlibvisual.so',
   'BINARY'),
  ('gst_plugins/libgstsmpte.so',
   '/usr/lib/x86_64-linux-gnu/gstreamer-1.0/libgstsmpte.so',
   'BINARY'),
  ('gst_plugins/libgstvideotestsrc.so',
   '/usr/lib/x86_64-linux-gnu/gstreamer-1.0/libgstvideotestsrc.so',
   'BINARY'),
  ('libglib-2.0.so.0', '/lib/x86_64-linux-gnu/libglib-2.0.so.0', 'BINARY'),
  ('gst_plugins/libgstflv.so',
   '/usr/lib/x86_64-linux-gnu/gstreamer-1.0/libgstflv.so',
   'BINARY'),
  ('gst_plugins/libgstcairo.so',
   '/usr/lib/x86_64-linux-gnu/gstreamer-1.0/libgstcairo.so',
   'BINARY'),
  ('gst_plugins/libgstaudiotestsrc.so',
   '/usr/lib/x86_64-linux-gnu/gstreamer-1.0/libgstaudiotestsrc.so',
   'BINARY'),
  ('gst_plugins/libgstencoding.so',
   '/usr/lib/x86_64-linux-gnu/gstreamer-1.0/libgstencoding.so',
   'BINARY'),
  ('gst_plugins/libgstalpha.so',
   '/usr/lib/x86_64-linux-gnu/gstreamer-1.0/libgstalpha.so',
   'BINARY'),
  ('gst_plugins/libgstapp.so',
   '/usr/lib/x86_64-linux-gnu/gstreamer-1.0/libgstapp.so',
   'BINARY'),
  ('gst_plugins/libgstdv.so',
   '/usr/lib/x86_64-linux-gnu/gstreamer-1.0/libgstdv.so',
   'BINARY'),
  ('gst_plugins/libgstvideofilter.so',
   '/usr/lib/x86_64-linux-gnu/gstreamer-1.0/libgstvideofilter.so',
   'BINARY'),
  ('gst_plugins/libgsttcp.so',
   '/usr/lib/x86_64-linux-gnu/gstreamer-1.0/libgsttcp.so',
   'BINARY'),
  ('gst_plugins/libgstgoom2k1.so',
   '/usr/lib/x86_64-linux-gnu/gstreamer-1.0/libgstgoom2k1.so',
   'BINARY'),
  ('gst_plugins/libgstgdkpixbuf.so',
   '/usr/lib/x86_64-linux-gnu/gstreamer-1.0/libgstgdkpixbuf.so',
   'BINARY'),
  ('gst_plugins/libgstopus.so',
   '/usr/lib/x86_64-linux-gnu/gstreamer-1.0/libgstopus.so',
   'BINARY'),
  ('gio_modules/libgiognomeproxy.so',
   '/lib/x86_64-linux-gnu/gio/modules/libgiognomeproxy.so',
   'BINARY'),
  ('gst_plugins/libgstjpeg.so',
   '/usr/lib/x86_64-linux-gnu/gstreamer-1.0/libgstjpeg.so',
   'BINARY'),
  ('gst_plugins/libgstalaw.so',
   '/usr/lib/x86_64-linux-gnu/gstreamer-1.0/libgstalaw.so',
   'BINARY'),
  ('gst_plugins/libgstalphacolor.so',
   '/usr/lib/x86_64-linux-gnu/gstreamer-1.0/libgstalphacolor.so',
   'BINARY'),
  ('gst_plugins/libgstcoretracers.so',
   '/usr/lib/x86_64-linux-gnu/gstreamer-1.0/libgstcoretracers.so',
   'BINARY'),
  ('gst_plugins/libgstcoreelements.so',
   '/usr/lib/x86_64-linux-gnu/gstreamer-1.0/libgstcoreelements.so',
   'BINARY'),
  ('gst_plugins/libgstvorbis.so',
   '/usr/lib/x86_64-linux-gnu/gstreamer-1.0/libgstvorbis.so',
   'BINARY'),
  ('libgio-2.0.so.0', '/lib/x86_64-linux-gnu/libgio-2.0.so.0', 'BINARY'),
  ('gst_plugins/libgstnavigationtest.so',
   '/usr/lib/x86_64-linux-gnu/gstreamer-1.0/libgstnavigationtest.so',
   'BINARY'),
  ('gst_plugins/libgstvideomixer.so',
   '/usr/lib/x86_64-linux-gnu/gstreamer-1.0/libgstvideomixer.so',
   'BINARY'),
  ('gst_plugins/libgstaudioconvert.so',
   '/usr/lib/x86_64-linux-gnu/gstreamer-1.0/libgstaudioconvert.so',
   'BINARY'),
  ('gst_plugins/libgsty4menc.so',
   '/usr/lib/x86_64-linux-gnu/gstreamer-1.0/libgsty4menc.so',
   'BINARY'),
  ('gst_plugins/libgstid3demux.so',
   '/usr/lib/x86_64-linux-gnu/gstreamer-1.0/libgstid3demux.so',
   'BINARY'),
  ('gst_plugins/libgsttwolame.so',
   '/usr/lib/x86_64-linux-gnu/gstreamer-1.0/libgsttwolame.so',
   'BINARY'),
  ('gst_plugins/libgstpbtypes.so',
   '/usr/lib/x86_64-linux-gnu/gstreamer-1.0/libgstpbtypes.so',
   'BINARY'),
  ('gst_plugins/libgsttheora.so',
   '/usr/lib/x86_64-linux-gnu/gstreamer-1.0/libgsttheora.so',
   'BINARY'),
  ('libgmodule-2.0.so.0',
   '/lib/x86_64-linux-gnu/libgmodule-2.0.so.0',
   'BINARY'),
  ('gio_modules/libgiognutls.so',
   '/lib/x86_64-linux-gnu/gio/modules/libgiognutls.so',
   'BINARY'),
  ('gst_plugins/libgstximagesrc.so',
   '/usr/lib/x86_64-linux-gnu/gstreamer-1.0/libgstximagesrc.so',
   'BINARY'),
  ('gst_plugins/libgstmonoscope.so',
   '/usr/lib/x86_64-linux-gnu/gstreamer-1.0/libgstmonoscope.so',
   'BINARY'),
  ('lib-dynload/_lzma',
   '/usr/lib/python3.8/lib-dynload/_lzma.cpython-38-x86_64-linux-gnu.so',
   'EXTENSION'),
  ('lib-dynload/_bz2',
   '/usr/lib/python3.8/lib-dynload/_bz2.cpython-38-x86_64-linux-gnu.so',
   'EXTENSION'),
  ('lib-dynload/resource',
   '/usr/lib/python3.8/lib-dynload/resource.cpython-38-x86_64-linux-gnu.so',
   'EXTENSION'),
  ('lib-dynload/_opcode',
   '/usr/lib/python3.8/lib-dynload/_opcode.cpython-38-x86_64-linux-gnu.so',
   'EXTENSION'),
  ('lib-dynload/_posixshmem',
   '/usr/lib/python3.8/lib-dynload/_posixshmem.cpython-38-x86_64-linux-gnu.so',
   'EXTENSION'),
  ('lib-dynload/_multiprocessing',
   '/usr/lib/python3.8/lib-dynload/_multiprocessing.cpython-38-x86_64-linux-gnu.so',
   'EXTENSION'),
  ('lib-dynload/termios',
   '/usr/lib/python3.8/lib-dynload/termios.cpython-38-x86_64-linux-gnu.so',
   'EXTENSION'),
  ('lib-dynload/_ssl',
   '/usr/lib/python3.8/lib-dynload/_ssl.cpython-38-x86_64-linux-gnu.so',
   'EXTENSION'),
  ('lib-dynload/_hashlib',
   '/usr/lib/python3.8/lib-dynload/_hashlib.cpython-38-x86_64-linux-gnu.so',
   'EXTENSION'),
  ('lib-dynload/_contextvars',
   '/usr/lib/python3.8/lib-dynload/_contextvars.cpython-38-x86_64-linux-gnu.so',
   'EXTENSION'),
  ('lib-dynload/_decimal',
   '/usr/lib/python3.8/lib-dynload/_decimal.cpython-38-x86_64-linux-gnu.so',
   'EXTENSION'),
  ('lib-dynload/_asyncio',
   '/usr/lib/python3.8/lib-dynload/_asyncio.cpython-38-x86_64-linux-gnu.so',
   'EXTENSION'),
  ('lib-dynload/_queue',
   '/usr/lib/python3.8/lib-dynload/_queue.cpython-38-x86_64-linux-gnu.so',
   'EXTENSION'),
  ('lib-dynload/mmap',
   '/usr/lib/python3.8/lib-dynload/mmap.cpython-38-x86_64-linux-gnu.so',
   'EXTENSION'),
  ('lib-dynload/readline',
   '/usr/lib/python3.8/lib-dynload/readline.cpython-38-x86_64-linux-gnu.so',
   'EXTENSION'),
  ('lib-dynload/_ctypes',
   '/usr/lib/python3.8/lib-dynload/_ctypes.cpython-38-x86_64-linux-gnu.so',
   'EXTENSION'),
  ('lib-dynload/_multibytecodec',
   '/usr/lib/python3.8/lib-dynload/_multibytecodec.cpython-38-x86_64-linux-gnu.so',
   'EXTENSION'),
  ('lib-dynload/_codecs_iso2022',
   '/usr/lib/python3.8/lib-dynload/_codecs_iso2022.cpython-38-x86_64-linux-gnu.so',
   'EXTENSION'),
  ('lib-dynload/_codecs_jp',
   '/usr/lib/python3.8/lib-dynload/_codecs_jp.cpython-38-x86_64-linux-gnu.so',
   'EXTENSION'),
  ('lib-dynload/_codecs_kr',
   '/usr/lib/python3.8/lib-dynload/_codecs_kr.cpython-38-x86_64-linux-gnu.so',
   'EXTENSION'),
  ('lib-dynload/_codecs_tw',
   '/usr/lib/python3.8/lib-dynload/_codecs_tw.cpython-38-x86_64-linux-gnu.so',
   'EXTENSION'),
  ('lib-dynload/_codecs_cn',
   '/usr/lib/python3.8/lib-dynload/_codecs_cn.cpython-38-x86_64-linux-gnu.so',
   'EXTENSION'),
  ('lib-dynload/_codecs_hk',
   '/usr/lib/python3.8/lib-dynload/_codecs_hk.cpython-38-x86_64-linux-gnu.so',
   'EXTENSION'),
  ('PIL._imagingtk',
   '/usr/lib/python3/dist-packages/PIL/_imagingtk.cpython-38-x86_64-linux-gnu.so',
   'EXTENSION'),
  ('PIL._webp',
   '/usr/lib/python3/dist-packages/PIL/_webp.cpython-38-x86_64-linux-gnu.so',
   'EXTENSION'),
  ('PIL._imaging',
   '/usr/lib/python3/dist-packages/PIL/_imaging.cpython-38-x86_64-linux-gnu.so',
   'EXTENSION'),
  ('gi._gi',
   '/usr/lib/python3/dist-packages/gi/_gi.cpython-38-x86_64-linux-gnu.so',
   'EXTENSION'),
  ('lib-dynload/_tkinter',
   '/usr/lib/python3.8/lib-dynload/_tkinter.cpython-38-x86_64-linux-gnu.so',
   'EXTENSION'),
  ('libpcre.so.3', '/lib/x86_64-linux-gnu/libpcre.so.3', 'BINARY'),
  ('libpcre2-8.so.0', '/lib/x86_64-linux-gnu/libpcre2-8.so.0', 'BINARY'),
  ('libselinux.so.1', '/lib/x86_64-linux-gnu/libselinux.so.1', 'BINARY'),
  ('libffi.so.7', '/lib/x86_64-linux-gnu/libffi.so.7', 'BINARY'),
  ('libblkid.so.1', '/lib/x86_64-linux-gnu/libblkid.so.1', 'BINARY'),
  ('libgvfscommon.so',
   '/usr/lib/x86_64-linux-gnu/gvfs/libgvfscommon.so',
   'BINARY'),
  ('libmount.so.1', '/lib/x86_64-linux-gnu/libmount.so.1', 'BINARY'),
  ('libgstvideo-1.0.so.0',
   '/lib/x86_64-linux-gnu/libgstvideo-1.0.so.0',
   'BINARY'),
  ('liborc-0.4.so.0', '/lib/x86_64-linux-gnu/liborc-0.4.so.0', 'BINARY'),
  ('libgstbase-1.0.so.0',
   '/lib/x86_64-linux-gnu/libgstbase-1.0.so.0',
   'BINARY'),
  ('libgsttag-1.0.so.0', '/lib/x86_64-linux-gnu/libgsttag-1.0.so.0', 'BINARY'),
  ('libmpg123.so.0', '/lib/x86_64-linux-gnu/libmpg123.so.0', 'BINARY'),
  ('libgstaudio-1.0.so.0',
   '/lib/x86_64-linux-gnu/libgstaudio-1.0.so.0',
   'BINARY'),
  ('libgstfft-1.0.so.0', '/lib/x86_64-linux-gnu/libgstfft-1.0.so.0', 'BINARY'),
  ('libXau.so.6', '/lib/x86_64-linux-gnu/libXau.so.6', 'BINARY'),
  ('libX11.so.6', '/lib/x86_64-linux-gnu/libX11.so.6', 'BINARY'),
  ('libuuid.so.1', '/lib/x86_64-linux-gnu/libuuid.so.1', 'BINARY'),
  ('libxcb-shm.so.0', '/lib/x86_64-linux-gnu/libxcb-shm.so.0', 'BINARY'),
  ('libXext.so.6', '/lib/x86_64-linux-gnu/libXext.so.6', 'BINARY'),
  ('libfontconfig.so.1', '/lib/x86_64-linux-gnu/libfontconfig.so.1', 'BINARY'),
  ('libcrypto.so.1.1', '/lib/x86_64-linux-gnu/libcrypto.so.1.1', 'BINARY'),
  ('libpixman-1.so.0', '/lib/x86_64-linux-gnu/libpixman-1.so.0', 'BINARY'),
  ('libspeex.so.1', '/lib/x86_64-linux-gnu/libspeex.so.1', 'BINARY'),
  ('libssl.so.1.1', '/lib/x86_64-linux-gnu/libssl.so.1.1', 'BINARY'),
  ('libogg.so.0', '/lib/x86_64-linux-gnu/libogg.so.0', 'BINARY'),
  ('libpng16.so.16', '/lib/x86_64-linux-gnu/libpng16.so.16', 'BINARY'),
  ('libxcb-render.so.0', '/lib/x86_64-linux-gnu/libxcb-render.so.0', 'BINARY'),
  ('libcairo.so.2', '/lib/x86_64-linux-gnu/libcairo.so.2', 'BINARY'),
  ('libbsd.so.0', '/lib/x86_64-linux-gnu/libbsd.so.0', 'BINARY'),
  ('libvorbis.so.0', '/lib/x86_64-linux-gnu/libvorbis.so.0', 'BINARY'),
  ('libXdmcp.so.6', '/lib/x86_64-linux-gnu/libXdmcp.so.6', 'BINARY'),
  ('libshout.so.3', '/lib/x86_64-linux-gnu/libshout.so.3', 'BINARY'),
  ('libXrender.so.1', '/lib/x86_64-linux-gnu/libXrender.so.1', 'BINARY'),
  ('libtheora.so.0', '/lib/x86_64-linux-gnu/libtheora.so.0', 'BINARY'),
  ('libfreetype.so.6', '/lib/x86_64-linux-gnu/libfreetype.so.6', 'BINARY'),
  ('libcdda_paranoia.so.0',
   '/lib/x86_64-linux-gnu/libcdda_paranoia.so.0',
   'BINARY'),
  ('libcdda_interface.so.0',
   '/lib/x86_64-linux-gnu/libcdda_interface.so.0',
   'BINARY'),
  ('libgstrtp-1.0.so.0', '/lib/x86_64-linux-gnu/libgstrtp-1.0.so.0', 'BINARY'),
  ('libgstriff-1.0.so.0',
   '/lib/x86_64-linux-gnu/libgstriff-1.0.so.0',
   'BINARY'),
  ('libstdc++.so.6', '/lib/x86_64-linux-gnu/libstdc++.so.6', 'BINARY'),
  ('libjack.so.0', '/lib/x86_64-linux-gnu/libjack.so.0', 'BINARY'),
  ('libgcc_s.so.1', '/lib/x86_64-linux-gnu/libgcc_s.so.1', 'BINARY'),
  ('libgstpbutils-1.0.so.0',
   '/lib/x86_64-linux-gnu/libgstpbutils-1.0.so.0',
   'BINARY'),
  ('libgstrtsp-1.0.so.0',
   '/lib/x86_64-linux-gnu/libgstrtsp-1.0.so.0',
   'BINARY'),
  ('libgstnet-1.0.so.0', '/lib/x86_64-linux-gnu/libgstnet-1.0.so.0', 'BINARY'),
  ('libgstsdp-1.0.so.0', '/lib/x86_64-linux-gnu/libgstsdp-1.0.so.0', 'BINARY'),
  ('libbz2.so.1.0', '/lib/x86_64-linux-gnu/libbz2.so.1.0', 'BINARY'),
  ('libasound.so.2', '/lib/x86_64-linux-gnu/libasound.so.2', 'BINARY'),
  ('libX11-xcb.so.1', '/lib/x86_64-linux-gnu/libX11-xcb.so.1', 'BINARY'),
  ('libgstcontroller-1.0.so.0',
   '/lib/x86_64-linux-gnu/libgstcontroller-1.0.so.0',
   'BINARY'),
  ('libgbm.so.1', '/lib/x86_64-linux-gnu/libgbm.so.1', 'BINARY'),
  ('libwayland-server.so.0',
   '/lib/x86_64-linux-gnu/libwayland-server.so.0',
   'BINARY'),
  ('libwayland-client.so.0',
   '/lib/x86_64-linux-gnu/libwayland-client.so.0',
   'BINARY'),
  ('libudev.so.1', '/lib/x86_64-linux-gnu/libudev.so.1', 'BINARY'),
  ('libgstgl-1.0.so.0', '/lib/x86_64-linux-gnu/libgstgl-1.0.so.0', 'BINARY'),
  ('libjpeg.so.8', '/lib/x86_64-linux-gnu/libjpeg.so.8', 'BINARY'),
  ('libwayland-egl.so.1',
   '/lib/x86_64-linux-gnu/libwayland-egl.so.1',
   'BINARY'),
  ('libgudev-1.0.so.0', '/lib/x86_64-linux-gnu/libgudev-1.0.so.0', 'BINARY'),
  ('libgstallocators-1.0.so.0',
   '/lib/x86_64-linux-gnu/libgstallocators-1.0.so.0',
   'BINARY'),
  ('libgraphene-1.0.so.0',
   '/lib/x86_64-linux-gnu/libgraphene-1.0.so.0',
   'BINARY'),
  ('libkrb5.so.3', '/lib/x86_64-linux-gnu/libkrb5.so.3', 'BINARY'),
  ('libsqlite3.so.0', '/lib/x86_64-linux-gnu/libsqlite3.so.0', 'BINARY'),
  ('libpsl.so.5', '/lib/x86_64-linux-gnu/libpsl.so.5', 'BINARY'),
  ('libunistring.so.2', '/lib/x86_64-linux-gnu/libunistring.so.2', 'BINARY'),
  ('libkrb5support.so.0',
   '/lib/x86_64-linux-gnu/libkrb5support.so.0',
   'BINARY'),
  ('libcom_err.so.2', '/lib/x86_64-linux-gnu/libcom_err.so.2', 'BINARY'),
  ('libgssapi_krb5.so.2',
   '/lib/x86_64-linux-gnu/libgssapi_krb5.so.2',
   'BINARY'),
  ('libicudata.so.66', '/lib/x86_64-linux-gnu/libicudata.so.66', 'BINARY'),
  ('libxml2.so.2', '/lib/x86_64-linux-gnu/libxml2.so.2', 'BINARY'),
  ('libsoup-2.4.so.1', '/lib/x86_64-linux-gnu/libsoup-2.4.so.1', 'BINARY'),
  ('libk5crypto.so.3', '/lib/x86_64-linux-gnu/libk5crypto.so.3', 'BINARY'),
  ('libbrotlicommon.so.1',
   '/lib/x86_64-linux-gnu/libbrotlicommon.so.1',
   'BINARY'),
  ('libkeyutils.so.1', '/lib/x86_64-linux-gnu/libkeyutils.so.1', 'BINARY'),
  ('libidn2.so.0', '/lib/x86_64-linux-gnu/libidn2.so.0', 'BINARY'),
  ('libicuuc.so.66', '/lib/x86_64-linux-gnu/libicuuc.so.66', 'BINARY'),
  ('libbrotlidec.so.1', '/lib/x86_64-linux-gnu/libbrotlidec.so.1', 'BINARY'),
  ('liblzma.so.5', '/lib/x86_64-linux-gnu/liblzma.so.5', 'BINARY'),
  ('libgstbasecamerabinsrc-1.0.so.0',
   '/lib/x86_64-linux-gnu/libgstbasecamerabinsrc-1.0.so.0',
   'BINARY'),
  ('libgstapp-1.0.so.0', '/lib/x86_64-linux-gnu/libgstapp-1.0.so.0', 'BINARY'),
  ('libgstphotography-1.0.so.0',
   '/lib/x86_64-linux-gnu/libgstphotography-1.0.so.0',
   'BINARY'),
  ('libslang.so.2', '/lib/x86_64-linux-gnu/libslang.so.2', 'BINARY'),
  ('libcaca.so.0', '/lib/x86_64-linux-gnu/libcaca.so.0', 'BINARY'),
  ('libtinfo.so.6', '/lib/x86_64-linux-gnu/libtinfo.so.6', 'BINARY'),
  ('libncursesw.so.6', '/lib/x86_64-linux-gnu/libncursesw.so.6', 'BINARY'),
  ('libmp3lame.so.0', '/lib/x86_64-linux-gnu/libmp3lame.so.0', 'BINARY'),
  ('libproxy.so.1', '/lib/x86_64-linux-gnu/libproxy.so.1', 'BINARY'),
  ('libgraphite2.so.3', '/lib/x86_64-linux-gnu/libgraphite2.so.3', 'BINARY'),
  ('libpango-1.0.so.0', '/lib/x86_64-linux-gnu/libpango-1.0.so.0', 'BINARY'),
  ('libdatrie.so.1', '/lib/x86_64-linux-gnu/libdatrie.so.1', 'BINARY'),
  ('libpangoft2-1.0.so.0',
   '/lib/x86_64-linux-gnu/libpangoft2-1.0.so.0',
   'BINARY'),
  ('libfribidi.so.0', '/lib/x86_64-linux-gnu/libfribidi.so.0', 'BINARY'),
  ('libthai.so.0', '/lib/x86_64-linux-gnu/libthai.so.0', 'BINARY'),
  ('libpangocairo-1.0.so.0',
   '/lib/x86_64-linux-gnu/libpangocairo-1.0.so.0',
   'BINARY'),
  ('libharfbuzz.so.0', '/lib/x86_64-linux-gnu/libharfbuzz.so.0', 'BINARY'),
  ('libvpx.so.6', '/lib/x86_64-linux-gnu/libvpx.so.6', 'BINARY'),
  ('libaa.so.1', '/lib/x86_64-linux-gnu/libaa.so.1', 'BINARY'),
  ('libncurses.so.6', '/lib/x86_64-linux-gnu/libncurses.so.6', 'BINARY'),
  ('libgpm.so.2', '/lib/x86_64-linux-gnu/libgpm.so.2', 'BINARY'),
  ('libraw1394.so.11', '/lib/x86_64-linux-gnu/libraw1394.so.11', 'BINARY'),
  ('librom1394.so.0', '/lib/x86_64-linux-gnu/librom1394.so.0', 'BINARY'),
  ('libiec61883.so.0', '/lib/x86_64-linux-gnu/libiec61883.so.0', 'BINARY'),
  ('libavc1394.so.0', '/lib/x86_64-linux-gnu/libavc1394.so.0', 'BINARY'),
  ('libtag.so.1', '/lib/x86_64-linux-gnu/libtag.so.1', 'BINARY'),
  ('libv4lconvert.so.0', '/lib/x86_64-linux-gnu/libv4lconvert.so.0', 'BINARY'),
  ('libv4l2.so.0', '/lib/x86_64-linux-gnu/libv4l2.so.0', 'BINARY'),
  ('libwavpack.so.1', '/lib/x86_64-linux-gnu/libwavpack.so.1', 'BINARY'),
  ('libXv.so.1', '/lib/x86_64-linux-gnu/libXv.so.1', 'BINARY'),
  ('libFLAC.so.8', '/lib/x86_64-linux-gnu/libFLAC.so.8', 'BINARY'),
  ('libgpg-error.so.0', '/lib/x86_64-linux-gnu/libgpg-error.so.0', 'BINARY'),
  ('libpulse.so.0', '/lib/x86_64-linux-gnu/libpulse.so.0', 'BINARY'),
  ('libasyncns.so.0', '/lib/x86_64-linux-gnu/libasyncns.so.0', 'BINARY'),
  ('libdbus-1.so.3', '/lib/x86_64-linux-gnu/libdbus-1.so.3', 'BINARY'),
  ('libapparmor.so.1', '/lib/x86_64-linux-gnu/libapparmor.so.1', 'BINARY'),
  ('libvorbisenc.so.2', '/lib/x86_64-linux-gnu/libvorbisenc.so.2', 'BINARY'),
  ('libsndfile.so.1', '/lib/x86_64-linux-gnu/libsndfile.so.1', 'BINARY'),
  ('libsystemd.so.0', '/lib/x86_64-linux-gnu/libsystemd.so.0', 'BINARY'),
  ('liblz4.so.1', '/lib/x86_64-linux-gnu/liblz4.so.1', 'BINARY'),
  ('libpulsecommon-13.99.so',
   '/usr/lib/x86_64-linux-gnu/pulseaudio/libpulsecommon-13.99.so',
   'BINARY'),
  ('libwrap.so.0', '/lib/x86_64-linux-gnu/libwrap.so.0', 'BINARY'),
  ('libgcrypt.so.20', '/lib/x86_64-linux-gnu/libgcrypt.so.20', 'BINARY'),
  ('libvisual-0.4.so.0', '/lib/x86_64-linux-gnu/libvisual-0.4.so.0', 'BINARY'),
  ('libcairo-gobject.so.2',
   '/lib/x86_64-linux-gnu/libcairo-gobject.so.2',
   'BINARY'),
  ('libdv.so.4', '/lib/x86_64-linux-gnu/libdv.so.4', 'BINARY'),
  ('libgdk_pixbuf-2.0.so.0',
   '/lib/x86_64-linux-gnu/libgdk_pixbuf-2.0.so.0',
   'BINARY'),
  ('libopus.so.0', '/lib/x86_64-linux-gnu/libopus.so.0', 'BINARY'),
  ('libtwolame.so.0', '/lib/x86_64-linux-gnu/libtwolame.so.0', 'BINARY'),
  ('libtheoraenc.so.1', '/lib/x86_64-linux-gnu/libtheoraenc.so.1', 'BINARY'),
  ('libtheoradec.so.1', '/lib/x86_64-linux-gnu/libtheoradec.so.1', 'BINARY'),
  ('libtasn1.so.6', '/lib/x86_64-linux-gnu/libtasn1.so.6', 'BINARY'),
  ('libgnutls.so.30', '/lib/x86_64-linux-gnu/libgnutls.so.30', 'BINARY'),
  ('libp11-kit.so.0', '/lib/x86_64-linux-gnu/libp11-kit.so.0', 'BINARY'),
  ('libhogweed.so.5', '/lib/x86_64-linux-gnu/libhogweed.so.5', 'BINARY'),
  ('libgmp.so.10', '/lib/x86_64-linux-gnu/libgmp.so.10', 'BINARY'),
  ('libnettle.so.7', '/lib/x86_64-linux-gnu/libnettle.so.7', 'BINARY'),
  ('libXfixes.so.3', '/lib/x86_64-linux-gnu/libXfixes.so.3', 'BINARY'),
  ('libXdamage.so.1', '/lib/x86_64-linux-gnu/libXdamage.so.1', 'BINARY'),
  ('libmpdec.so.2', '/lib/x86_64-linux-gnu/libmpdec.so.2', 'BINARY'),
  ('libreadline.so.8', '/lib/x86_64-linux-gnu/libreadline.so.8', 'BINARY'),
  ('libwebpmux.so.3', '/lib/x86_64-linux-gnu/libwebpmux.so.3', 'BINARY'),
  ('libwebp.so.6', '/lib/x86_64-linux-gnu/libwebp.so.6', 'BINARY'),
  ('libwebpdemux.so.2', '/lib/x86_64-linux-gnu/libwebpdemux.so.2', 'BINARY'),
  ('libimagequant.so.0', '/lib/x86_64-linux-gnu/libimagequant.so.0', 'BINARY'),
  ('libzstd.so.1', '/lib/x86_64-linux-gnu/libzstd.so.1', 'BINARY'),
  ('libjbig.so.0', '/lib/x86_64-linux-gnu/libjbig.so.0', 'BINARY'),
  ('libtiff.so.5', '/lib/x86_64-linux-gnu/libtiff.so.5', 'BINARY'),
  ('libgirepository-1.0.so.1',
   '/lib/x86_64-linux-gnu/libgirepository-1.0.so.1',
   'BINARY'),
  ('libXss.so.1', '/lib/x86_64-linux-gnu/libXss.so.1', 'BINARY'),
  ('libtk8.6.so', '/lib/x86_64-linux-gnu/libtk8.6.so', 'BINARY'),
  ('libXft.so.2', '/lib/x86_64-linux-gnu/libXft.so.2', 'BINARY'),
  ('libtcl8.6.so', '/lib/x86_64-linux-gnu/libtcl8.6.so', 'BINARY'),
  ('libBLT.2.5.so.8.6', '/lib/libBLT.2.5.so.8.6', 'BINARY'),
  ('libpython3.8.so.1.0',
   '/lib/x86_64-linux-gnu/libpython3.8.so.1.0',
   'BINARY'),
  ('base_library.zip',
   '/home/ryuta/デスクトップ/gitlab/chuntaKaruta/build/chuntaKaruta/base_library.zip',
   'DATA'),
  ('share/glib-2.0/schemas/org.gnome.settings-daemon.plugins.print-notifications.gschema.xml',
   '/usr/share/glib-2.0/schemas/org.gnome.settings-daemon.plugins.print-notifications.gschema.xml',
   'DATA'),
  ('tcl/msgs/gl.msg', '/usr/share/tcltk/tcl8.6/msgs/gl.msg', 'DATA'),
  ('tk/ttk/sizegrip.tcl', '/usr/share/tcltk/tk8.6/ttk/sizegrip.tcl', 'DATA'),
  ('tk/ttk/utils.tcl', '/usr/share/tcltk/tk8.6/ttk/utils.tcl', 'DATA'),
  ('tcl/msgs/nl.msg', '/usr/share/tcltk/tcl8.6/msgs/nl.msg', 'DATA'),
  ('tk/focus.tcl', '/usr/share/tcltk/tk8.6/focus.tcl', 'DATA'),
  ('share/glib-2.0/schemas/com.ubuntu.user-interface.gschema.xml',
   '/usr/share/glib-2.0/schemas/com.ubuntu.user-interface.gschema.xml',
   'DATA'),
  ('share/gstreamer-1.0/presets/GstQTMux.prs',
   '/usr/share/gstreamer-1.0/presets/GstQTMux.prs',
   'DATA'),
  ('tk/ttk/altTheme.tcl', '/usr/share/tcltk/tk8.6/ttk/altTheme.tcl', 'DATA'),
  ('share/glib-2.0/schemas/org.gnome.system.proxy.gschema.xml',
   '/usr/share/glib-2.0/schemas/org.gnome.system.proxy.gschema.xml',
   'DATA'),
  ('share/glib-2.0/schemas/org.gnome.shell.gschema.xml',
   '/usr/share/glib-2.0/schemas/org.gnome.shell.gschema.xml',
   'DATA'),
  ('tcl/encoding/iso8859-4.enc',
   '/usr/share/tcltk/tcl8.6/encoding/iso8859-4.enc',
   'DATA'),
  ('tcl/msgs/es_pa.msg', '/usr/share/tcltk/tcl8.6/msgs/es_pa.msg', 'DATA'),
  ('share/glib-2.0/schemas/org.gnome.desktop.a11y.applications.gschema.xml',
   '/usr/share/glib-2.0/schemas/org.gnome.desktop.a11y.applications.gschema.xml',
   'DATA'),
  ('tk/unsupported.tcl', '/usr/share/tcltk/tk8.6/unsupported.tcl', 'DATA'),
  ('share/gstreamer-1.0/presets/GstVP8Enc.prs',
   '/usr/share/gstreamer-1.0/presets/GstVP8Enc.prs',
   'DATA'),
  ('tcl/msgs/es_do.msg', '/usr/share/tcltk/tcl8.6/msgs/es_do.msg', 'DATA'),
  ('share/glib-2.0/schemas/org.gnome.settings-daemon.plugins.xsettings.gschema.xml',
   '/usr/share/glib-2.0/schemas/org.gnome.settings-daemon.plugins.xsettings.gschema.xml',
   'DATA'),
  ('tcl/msgs/ar_in.msg', '/usr/share/tcltk/tcl8.6/msgs/ar_in.msg', 'DATA'),
  ('tcl/msgs/ga_ie.msg', '/usr/share/tcltk/tcl8.6/msgs/ga_ie.msg', 'DATA'),
  ('tcl/msgs/es_ve.msg', '/usr/share/tcltk/tcl8.6/msgs/es_ve.msg', 'DATA'),
  ('tk/msgs/it.msg', '/usr/share/tcltk/tk8.6/msgs/it.msg', 'DATA'),
  ('share/glib-2.0/schemas/org.gnome.desktop.app-folders.gschema.xml',
   '/usr/share/glib-2.0/schemas/org.gnome.desktop.app-folders.gschema.xml',
   'DATA'),
  ('tcl/encoding/cp860.enc',
   '/usr/share/tcltk/tcl8.6/encoding/cp860.enc',
   'DATA'),
  ('tk/ttk/treeview.tcl', '/usr/share/tcltk/tk8.6/ttk/treeview.tcl', 'DATA'),
  ('share/glib-2.0/schemas/com.ubuntu.touch.sound.gschema.xml',
   '/usr/share/glib-2.0/schemas/com.ubuntu.touch.sound.gschema.xml',
   'DATA'),
  ('share/glib-2.0/schemas/org.gnome.GWeather.gschema.xml',
   '/usr/share/glib-2.0/schemas/org.gnome.GWeather.gschema.xml',
   'DATA'),
  ('share/glib-2.0/schemas/org.gnome.calculator.gschema.xml',
   '/usr/share/glib-2.0/schemas/org.gnome.calculator.gschema.xml',
   'DATA'),
  ('tcl/parray.tcl', '/usr/share/tcltk/tcl8.6/parray.tcl', 'DATA'),
  ('share/glib-2.0/schemas/org.gnome.libgnomekbd.keyboard.gschema.xml',
   '/usr/share/glib-2.0/schemas/org.gnome.libgnomekbd.keyboard.gschema.xml',
   'DATA'),
  ('tcl/auto.tcl', '/usr/share/tcltk/tcl8.6/auto.tcl', 'DATA'),
  ('share/glib-2.0/schemas/org.gnome.evolution.eds-shell.gschema.xml',
   '/usr/share/glib-2.0/schemas/org.gnome.evolution.eds-shell.gschema.xml',
   'DATA'),
  ('share/glib-2.0/schemas/org.gnome.crypto.cache.gschema.xml',
   '/usr/share/glib-2.0/schemas/org.gnome.crypto.cache.gschema.xml',
   'DATA'),
  ('tk/ttk/cursors.tcl', '/usr/share/tcltk/tk8.6/ttk/cursors.tcl', 'DATA'),
  ('share/glib-2.0/schemas/com.ubuntu.notifications.hub.gschema.xml',
   '/usr/share/glib-2.0/schemas/com.ubuntu.notifications.hub.gschema.xml',
   'DATA'),
  ('tcl/msgs/ko_kr.msg', '/usr/share/tcltk/tcl8.6/msgs/ko_kr.msg', 'DATA'),
  ('tcl/encoding/cp932.enc',
   '/usr/share/tcltk/tcl8.6/encoding/cp932.enc',
   'DATA'),
  ('tk/mkpsenc.tcl', '/usr/share/tcltk/tk8.6/mkpsenc.tcl', 'DATA'),
  ('tcl/encoding/cp1251.enc',
   '/usr/share/tcltk/tcl8.6/encoding/cp1251.enc',
   'DATA'),
  ('tcl/encoding/cp737.enc',
   '/usr/share/tcltk/tcl8.6/encoding/cp737.enc',
   'DATA'),
  ('tk/msgs/ru.msg', '/usr/share/tcltk/tk8.6/msgs/ru.msg', 'DATA'),
  ('tcl/msgs/el.msg', '/usr/share/tcltk/tcl8.6/msgs/el.msg', 'DATA'),
  ('tk/scrlbar.tcl', '/usr/share/tcltk/tk8.6/scrlbar.tcl', 'DATA'),
  ('tk/msgs/fr.msg', '/usr/share/tcltk/tk8.6/msgs/fr.msg', 'DATA'),
  ('share/glib-2.0/schemas/org.gnome.desktop.thumbnailers.gschema.xml',
   '/usr/share/glib-2.0/schemas/org.gnome.desktop.thumbnailers.gschema.xml',
   'DATA'),
  ('share/glib-2.0/schemas/org.gnome.Logs.gschema.xml',
   '/usr/share/glib-2.0/schemas/org.gnome.Logs.gschema.xml',
   'DATA'),
  ('share/glib-2.0/schemas/gschemas.compiled',
   '/usr/share/glib-2.0/schemas/gschemas.compiled',
   'DATA'),
  ('tcl/msgs/es_ar.msg', '/usr/share/tcltk/tcl8.6/msgs/es_ar.msg', 'DATA'),
  ('share/glib-2.0/schemas/org.gnome.Disks.gschema.xml',
   '/usr/share/glib-2.0/schemas/org.gnome.Disks.gschema.xml',
   'DATA'),
  ('share/glib-2.0/schemas/org.gnome.libgnomekbd.desktop.gschema.xml',
   '/usr/share/glib-2.0/schemas/org.gnome.libgnomekbd.desktop.gschema.xml',
   'DATA'),
  ('share/glib-2.0/schemas/org.gnome.desktop.privacy.gschema.xml',
   '/usr/share/glib-2.0/schemas/org.gnome.desktop.privacy.gschema.xml',
   'DATA'),
  ('tk/images/pwrdLogo150.gif',
   '/usr/share/tcltk/tk8.6/images/pwrdLogo150.gif',
   'DATA'),
  ('tk/images/pwrdLogo200.gif',
   '/usr/share/tcltk/tk8.6/images/pwrdLogo200.gif',
   'DATA'),
  ('tk/listbox.tcl', '/usr/share/tcltk/tk8.6/listbox.tcl', 'DATA'),
  ('tcl/encoding/iso8859-9.enc',
   '/usr/share/tcltk/tcl8.6/encoding/iso8859-9.enc',
   'DATA'),
  ('tcl/encoding/tis-620.enc',
   '/usr/share/tcltk/tcl8.6/encoding/tis-620.enc',
   'DATA'),
  ('tcl/encoding/cp850.enc',
   '/usr/share/tcltk/tcl8.6/encoding/cp850.enc',
   'DATA'),
  ('share/glib-2.0/schemas/org.gnome.desktop.sound.gschema.xml',
   '/usr/share/glib-2.0/schemas/org.gnome.desktop.sound.gschema.xml',
   'DATA'),
  ('tcl/encoding/iso8859-2.enc',
   '/usr/share/tcltk/tcl8.6/encoding/iso8859-2.enc',
   'DATA'),
  ('share/glib-2.0/schemas/org.gnome.system.dns_sd.gschema.xml',
   '/usr/share/glib-2.0/schemas/org.gnome.system.dns_sd.gschema.xml',
   'DATA'),
  ('tcl/msgs/mt.msg', '/usr/share/tcltk/tcl8.6/msgs/mt.msg', 'DATA'),
  ('tcl/msgs/bn_in.msg', '/usr/share/tcltk/tcl8.6/msgs/bn_in.msg', 'DATA'),
  ('tcl/encoding/macCroatian.enc',
   '/usr/share/tcltk/tcl8.6/encoding/macCroatian.enc',
   'DATA'),
  ('tcl/msgs/uk.msg', '/usr/share/tcltk/tcl8.6/msgs/uk.msg', 'DATA'),
  ('tk/images/logoLarge.gif',
   '/usr/share/tcltk/tk8.6/images/logoLarge.gif',
   'DATA'),
  ('share/glib-2.0/schemas/org.gnome.settings-daemon.peripherals.wacom.gschema.xml',
   '/usr/share/glib-2.0/schemas/org.gnome.settings-daemon.peripherals.wacom.gschema.xml',
   'DATA'),
  ('tcl/msgs/ta_in.msg', '/usr/share/tcltk/tcl8.6/msgs/ta_in.msg', 'DATA'),
  ('tcl/msgs/ru_ua.msg', '/usr/share/tcltk/tcl8.6/msgs/ru_ua.msg', 'DATA'),
  ('share/glib-2.0/schemas/org.gnome.desktop.session.gschema.xml',
   '/usr/share/glib-2.0/schemas/org.gnome.desktop.session.gschema.xml',
   'DATA'),
  ('share/glib-2.0/schemas/org.gnome.gedit.plugins.pythonconsole.gschema.xml',
   '/usr/share/glib-2.0/schemas/org.gnome.gedit.plugins.pythonconsole.gschema.xml',
   'DATA'),
  ('tcl/tclAppInit.c', '/usr/share/tcltk/tcl8.6/tclAppInit.c', 'DATA'),
  ('tcl/msgs/en_gb.msg', '/usr/share/tcltk/tcl8.6/msgs/en_gb.msg', 'DATA'),
  ('share/glib-2.0/schemas/com.ubuntu.sound.gschema.xml',
   '/usr/share/glib-2.0/schemas/com.ubuntu.sound.gschema.xml',
   'DATA'),
  ('tcl/encoding/iso8859-16.enc',
   '/usr/share/tcltk/tcl8.6/encoding/iso8859-16.enc',
   'DATA'),
  ('tcl/encoding/iso2022-kr.enc',
   '/usr/share/tcltk/tcl8.6/encoding/iso2022-kr.enc',
   'DATA'),
  ('tcl/msgs/te.msg', '/usr/share/tcltk/tcl8.6/msgs/te.msg', 'DATA'),
  ('tcl/msgs/en_au.msg', '/usr/share/tcltk/tcl8.6/msgs/en_au.msg', 'DATA'),
  ('tcl/msgs/ko.msg', '/usr/share/tcltk/tcl8.6/msgs/ko.msg', 'DATA'),
  ('share/glib-2.0/schemas/org.gnome.libgnomekbd.gschema.xml',
   '/usr/share/glib-2.0/schemas/org.gnome.libgnomekbd.gschema.xml',
   'DATA'),
  ('share/glib-2.0/schemas/org.gnome.Logs.enums.xml',
   '/usr/share/glib-2.0/schemas/org.gnome.Logs.enums.xml',
   'DATA'),
  ('share/glib-2.0/schemas/10_ubuntu-dock.gschema.override',
   '/usr/share/glib-2.0/schemas/10_ubuntu-dock.gschema.override',
   'DATA'),
  ('tcl/msgs/bg.msg', '/usr/share/tcltk/tcl8.6/msgs/bg.msg', 'DATA'),
  ('share/glib-2.0/schemas/org.gnome.gedit.gschema.xml',
   '/usr/share/glib-2.0/schemas/org.gnome.gedit.gschema.xml',
   'DATA'),
  ('share/glib-2.0/schemas/org.gnome.FileRoller.gschema.xml',
   '/usr/share/glib-2.0/schemas/org.gnome.FileRoller.gschema.xml',
   'DATA'),
  ('share/glib-2.0/schemas/org.gnome.seahorse.window.gschema.xml',
   '/usr/share/glib-2.0/schemas/org.gnome.seahorse.window.gschema.xml',
   'DATA'),
  ('tcl/encoding/cp857.enc',
   '/usr/share/tcltk/tcl8.6/encoding/cp857.enc',
   'DATA'),
  ('share/glib-2.0/schemas/com.ubuntu.SoftwareProperties.gschema.xml',
   '/usr/share/glib-2.0/schemas/com.ubuntu.SoftwareProperties.gschema.xml',
   'DATA'),
  ('share/glib-2.0/schemas/org.gnome.settings-daemon.enums.xml',
   '/usr/share/glib-2.0/schemas/org.gnome.settings-daemon.enums.xml',
   'DATA'),
  ('tcl/msgs/mr_in.msg', '/usr/share/tcltk/tcl8.6/msgs/mr_in.msg', 'DATA'),
  ('tcl/msgs/kw_gb.msg', '/usr/share/tcltk/tcl8.6/msgs/kw_gb.msg', 'DATA'),
  ('tcl/encoding/iso8859-15.enc',
   '/usr/share/tcltk/tcl8.6/encoding/iso8859-15.enc',
   'DATA'),
  ('share/glib-2.0/schemas/org.gnome.gnome-system-monitor.gschema.xml',
   '/usr/share/glib-2.0/schemas/org.gnome.gnome-system-monitor.gschema.xml',
   'DATA'),
  ('tk/msgs/el.msg', '/usr/share/tcltk/tk8.6/msgs/el.msg', 'DATA'),
  ('share/glib-2.0/schemas/org.gnome.evolution-data-server.calendar.gschema.xml',
   '/usr/share/glib-2.0/schemas/org.gnome.evolution-data-server.calendar.gschema.xml',
   'DATA'),
  ('share/glib-2.0/schemas/org.gnome.mutter.gschema.xml',
   '/usr/share/glib-2.0/schemas/org.gnome.mutter.gschema.xml',
   'DATA'),
  ('tcl/msgs/gv.msg', '/usr/share/tcltk/tcl8.6/msgs/gv.msg', 'DATA'),
  ('tcl/msgs/nb.msg', '/usr/share/tcltk/tcl8.6/msgs/nb.msg', 'DATA'),
  ('tcl/msgs/hr.msg', '/usr/share/tcltk/tcl8.6/msgs/hr.msg', 'DATA'),
  ('tk/ttk/winTheme.tcl', '/usr/share/tcltk/tk8.6/ttk/winTheme.tcl', 'DATA'),
  ('share/glib-2.0/schemas/20_ubuntu-defaults-ja.gschema.override',
   '/usr/share/glib-2.0/schemas/20_ubuntu-defaults-ja.gschema.override',
   'DATA'),
  ('share/glib-2.0/schemas/org.gnome.gedit.plugins.time.enums.xml',
   '/usr/share/glib-2.0/schemas/org.gnome.gedit.plugins.time.enums.xml',
   'DATA'),
  ('tcl/encoding/macCentEuro.enc',
   '/usr/share/tcltk/tcl8.6/encoding/macCentEuro.enc',
   'DATA'),
  ('tk/ttk/notebook.tcl', '/usr/share/tcltk/tk8.6/ttk/notebook.tcl', 'DATA'),
  ('share/glib-2.0/schemas/org.gnome.nautilus.gschema.xml',
   '/usr/share/glib-2.0/schemas/org.gnome.nautilus.gschema.xml',
   'DATA'),
  ('tcl/encoding/euc-cn.enc',
   '/usr/share/tcltk/tcl8.6/encoding/euc-cn.enc',
   'DATA'),
  ('tk/images/logo100.gif',
   '/usr/share/tcltk/tk8.6/images/logo100.gif',
   'DATA'),
  ('share/glib-2.0/schemas/org.gnome.mousetweaks.enums.xml',
   '/usr/share/glib-2.0/schemas/org.gnome.mousetweaks.enums.xml',
   'DATA'),
  ('tcl/encoding/cp1252.enc',
   '/usr/share/tcltk/tcl8.6/encoding/cp1252.enc',
   'DATA'),
  ('tcl/encoding/iso8859-5.enc',
   '/usr/share/tcltk/tcl8.6/encoding/iso8859-5.enc',
   'DATA'),
  ('tcl/encoding/iso8859-1.enc',
   '/usr/share/tcltk/tcl8.6/encoding/iso8859-1.enc',
   'DATA'),
  ('tk/ttk/xpTheme.tcl', '/usr/share/tcltk/tk8.6/ttk/xpTheme.tcl', 'DATA'),
  ('tcl/encoding/iso8859-6.enc',
   '/usr/share/tcltk/tcl8.6/encoding/iso8859-6.enc',
   'DATA'),
  ('share/glib-2.0/schemas/org.freedesktop.TrackerMiners.enums.xml',
   '/usr/share/glib-2.0/schemas/org.freedesktop.TrackerMiners.enums.xml',
   'DATA'),
  ('tcl/msgs/en_sg.msg', '/usr/share/tcltk/tcl8.6/msgs/en_sg.msg', 'DATA'),
  ('tk/obsolete.tcl', '/usr/share/tcltk/tk8.6/obsolete.tcl', 'DATA'),
  ('tk/ttk/classicTheme.tcl',
   '/usr/share/tcltk/tk8.6/ttk/classicTheme.tcl',
   'DATA'),
  ('tcl/encoding/cp775.enc',
   '/usr/share/tcltk/tcl8.6/encoding/cp775.enc',
   'DATA'),
  ('tcl/msgs/cs.msg', '/usr/share/tcltk/tcl8.6/msgs/cs.msg', 'DATA'),
  ('tcl/msgs/zh_tw.msg', '/usr/share/tcltk/tcl8.6/msgs/zh_tw.msg', 'DATA'),
  ('tcl/msgs/fa.msg', '/usr/share/tcltk/tcl8.6/msgs/fa.msg', 'DATA'),
  ('tk/console.tcl', '/usr/share/tcltk/tk8.6/console.tcl', 'DATA'),
  ('tk/msgs/es.msg', '/usr/share/tcltk/tk8.6/msgs/es.msg', 'DATA'),
  ('tk/icons.tcl', '/usr/share/tcltk/tk8.6/icons.tcl', 'DATA'),
  ('share/glib-2.0/schemas/org.gnome.settings-daemon.plugins.gschema.xml',
   '/usr/share/glib-2.0/schemas/org.gnome.settings-daemon.plugins.gschema.xml',
   'DATA'),
  ('tk/images/logo.eps', '/usr/share/tcltk/tk8.6/images/logo.eps', 'DATA'),
  ('tcl/msgs/es_pe.msg', '/usr/share/tcltk/tcl8.6/msgs/es_pe.msg', 'DATA'),
  ('tcl/msgs/kw.msg', '/usr/share/tcltk/tcl8.6/msgs/kw.msg', 'DATA'),
  ('tk/images/pwrdLogo175.gif',
   '/usr/share/tcltk/tk8.6/images/pwrdLogo175.gif',
   'DATA'),
  ('tcl/msgs/es_cl.msg', '/usr/share/tcltk/tcl8.6/msgs/es_cl.msg', 'DATA'),
  ('share/glib-2.0/schemas/org.gnome.settings-daemon.plugins.housekeeping.gschema.xml',
   '/usr/share/glib-2.0/schemas/org.gnome.settings-daemon.plugins.housekeeping.gschema.xml',
   'DATA'),
  ('tcl/msgs/es_uy.msg', '/usr/share/tcltk/tcl8.6/msgs/es_uy.msg', 'DATA'),
  ('tcl/http1.0/pkgIndex.tcl',
   '/usr/share/tcltk/tcl8.6/http1.0/pkgIndex.tcl',
   'DATA'),
  ('share/glib-2.0/schemas/org.gnome.power-manager.gschema.xml',
   '/usr/share/glib-2.0/schemas/org.gnome.power-manager.gschema.xml',
   'DATA'),
  ('tcl/encoding/cp1253.enc',
   '/usr/share/tcltk/tcl8.6/encoding/cp1253.enc',
   'DATA'),
  ('share/glib-2.0/schemas/org.gnome.evolution.shell.network-config.gschema.xml',
   '/usr/share/glib-2.0/schemas/org.gnome.evolution.shell.network-config.gschema.xml',
   'DATA'),
  ('tcl/msgs/es_co.msg', '/usr/share/tcltk/tcl8.6/msgs/es_co.msg', 'DATA'),
  ('tcl/encoding/ascii.enc',
   '/usr/share/tcltk/tcl8.6/encoding/ascii.enc',
   'DATA'),
  ('tcl/encoding/cp437.enc',
   '/usr/share/tcltk/tcl8.6/encoding/cp437.enc',
   'DATA'),
  ('tk/msgs/pt.msg', '/usr/share/tcltk/tk8.6/msgs/pt.msg', 'DATA'),
  ('tcl/encoding/cp1250.enc',
   '/usr/share/tcltk/tcl8.6/encoding/cp1250.enc',
   'DATA'),
  ('tcl/msgs/en_ie.msg', '/usr/share/tcltk/tcl8.6/msgs/en_ie.msg', 'DATA'),
  ('tcl/msgs/kl_gl.msg', '/usr/share/tcltk/tcl8.6/msgs/kl_gl.msg', 'DATA'),
  ('tk/ttk/entry.tcl', '/usr/share/tcltk/tk8.6/ttk/entry.tcl', 'DATA'),
  ('tk/msgs/de.msg', '/usr/share/tcltk/tk8.6/msgs/de.msg', 'DATA'),
  ('tcl/encoding/macRomania.enc',
   '/usr/share/tcltk/tcl8.6/encoding/macRomania.enc',
   'DATA'),
  ('tcl/msgs/fa_ir.msg', '/usr/share/tcltk/tcl8.6/msgs/fa_ir.msg', 'DATA'),
  ('tcl/encoding/shiftjis.enc',
   '/usr/share/tcltk/tcl8.6/encoding/shiftjis.enc',
   'DATA'),
  ('gi_typelibs/GModule-2.0.typelib',
   '/usr/lib/x86_64-linux-gnu/girepository-1.0/GModule-2.0.typelib',
   'DATA'),
  ('tk/msgs/sv.msg', '/usr/share/tcltk/tk8.6/msgs/sv.msg', 'DATA'),
  ('tk/msgs/cs.msg', '/usr/share/tcltk/tk8.6/msgs/cs.msg', 'DATA'),
  ('tcl/msgs/ro.msg', '/usr/share/tcltk/tcl8.6/msgs/ro.msg', 'DATA'),
  ('tcl/msgs/nl_be.msg', '/usr/share/tcltk/tcl8.6/msgs/nl_be.msg', 'DATA'),
  ('share/glib-2.0/schemas/org.gnome.desktop.wm.preferences.gschema.xml',
   '/usr/share/glib-2.0/schemas/org.gnome.desktop.wm.preferences.gschema.xml',
   'DATA'),
  ('tcl/msgs/es_sv.msg', '/usr/share/tcltk/tcl8.6/msgs/es_sv.msg', 'DATA'),
  ('tcl/msgs/pt.msg', '/usr/share/tcltk/tcl8.6/msgs/pt.msg', 'DATA'),
  ('tk/tk.tcl', '/usr/share/tcltk/tk8.6/tk.tcl', 'DATA'),
  ('tcl/encoding/cp865.enc',
   '/usr/share/tcltk/tcl8.6/encoding/cp865.enc',
   'DATA'),
  ('tcl/safe.tcl', '/usr/share/tcltk/tcl8.6/safe.tcl', 'DATA'),
  ('gi_typelibs/Gst-1.0.typelib',
   '/usr/lib/x86_64-linux-gnu/girepository-1.0/Gst-1.0.typelib',
   'DATA'),
  ('tk/images/pwrdLogo75.gif',
   '/usr/share/tcltk/tk8.6/images/pwrdLogo75.gif',
   'DATA'),
  ('tcl/tcl8/platform/shell-1.1.4.tm',
   '/usr/share/tcltk/tcl8.6/tcl8/platform/shell-1.1.4.tm',
   'DATA'),
  ('tcl/msgs/zh_hk.msg', '/usr/share/tcltk/tcl8.6/msgs/zh_hk.msg', 'DATA'),
  ('tcl/msgs/es_pr.msg', '/usr/share/tcltk/tcl8.6/msgs/es_pr.msg', 'DATA'),
  ('tcl/encoding/cp863.enc',
   '/usr/share/tcltk/tcl8.6/encoding/cp863.enc',
   'DATA'),
  ('tk/msgs/da.msg', '/usr/share/tcltk/tk8.6/msgs/da.msg', 'DATA'),
  ('share/glib-2.0/schemas/org.gnome.nm-applet.gschema.xml',
   '/usr/share/glib-2.0/schemas/org.gnome.nm-applet.gschema.xml',
   'DATA'),
  ('tk/msgs/en.msg', '/usr/share/tcltk/tk8.6/msgs/en.msg', 'DATA'),
  ('share/glib-2.0/schemas/org.gnome.gedit.plugins.time.gschema.xml',
   '/usr/share/glib-2.0/schemas/org.gnome.gedit.plugins.time.gschema.xml',
   'DATA'),
  ('share/glib-2.0/schemas/gschema.dtd',
   '/usr/share/glib-2.0/schemas/gschema.dtd',
   'DATA'),
  ('share/glib-2.0/schemas/org.gtk.Settings.EmojiChooser.gschema.xml',
   '/usr/share/glib-2.0/schemas/org.gtk.Settings.EmojiChooser.gschema.xml',
   'DATA'),
  ('tk/images/README', '/usr/share/tcltk/tk8.6/images/README', 'DATA'),
  ('tcl/msgs/mr.msg', '/usr/share/tcltk/tcl8.6/msgs/mr.msg', 'DATA'),
  ('tcl/encoding/macTurkish.enc',
   '/usr/share/tcltk/tcl8.6/encoding/macTurkish.enc',
   'DATA'),
  ('tcl/msgs/fr_ch.msg', '/usr/share/tcltk/tcl8.6/msgs/fr_ch.msg', 'DATA'),
  ('tcl/msgs/af_za.msg', '/usr/share/tcltk/tcl8.6/msgs/af_za.msg', 'DATA'),
  ('tcl/encoding/macGreek.enc',
   '/usr/share/tcltk/tcl8.6/encoding/macGreek.enc',
   'DATA'),
  ('tcl/msgs/eu.msg', '/usr/share/tcltk/tcl8.6/msgs/eu.msg', 'DATA'),
  ('tcl/msgs/te_in.msg', '/usr/share/tcltk/tcl8.6/msgs/te_in.msg', 'DATA'),
  ('tcl/msgs/is.msg', '/usr/share/tcltk/tcl8.6/msgs/is.msg', 'DATA'),
  ('share/glib-2.0/schemas/org.gnome.desktop.lockdown.gschema.xml',
   '/usr/share/glib-2.0/schemas/org.gnome.desktop.lockdown.gschema.xml',
   'DATA'),
  ('tcl/msgs/es_py.msg', '/usr/share/tcltk/tcl8.6/msgs/es_py.msg', 'DATA'),
  ('tcl/encoding/macThai.enc',
   '/usr/share/tcltk/tcl8.6/encoding/macThai.enc',
   'DATA'),
  ('tcl/msgs/es_ec.msg', '/usr/share/tcltk/tcl8.6/msgs/es_ec.msg', 'DATA'),
  ('tcl/msgs/id_id.msg', '/usr/share/tcltk/tcl8.6/msgs/id_id.msg', 'DATA'),
  ('tk/msgs/nl.msg', '/usr/share/tcltk/tk8.6/msgs/nl.msg', 'DATA'),
  ('tcl/tm.tcl', '/usr/share/tcltk/tcl8.6/tm.tcl', 'DATA'),
  ('share/glib-2.0/schemas/org.gnome.desktop.peripherals.gschema.xml',
   '/usr/share/glib-2.0/schemas/org.gnome.desktop.peripherals.gschema.xml',
   'DATA'),
  ('tk/fontchooser.tcl', '/usr/share/tcltk/tk8.6/fontchooser.tcl', 'DATA'),
  ('share/glib-2.0/schemas/10_gsettings-desktop-schemas.gschema.override',
   '/usr/share/glib-2.0/schemas/10_gsettings-desktop-schemas.gschema.override',
   'DATA'),
  ('share/glib-2.0/schemas/org.gnome.gedit.enums.xml',
   '/usr/share/glib-2.0/schemas/org.gnome.gedit.enums.xml',
   'DATA'),
  ('tcl/msgs/de_be.msg', '/usr/share/tcltk/tcl8.6/msgs/de_be.msg', 'DATA'),
  ('tcl/msgs/lv.msg', '/usr/share/tcltk/tcl8.6/msgs/lv.msg', 'DATA'),
  ('tcl/msgs/fo_fo.msg', '/usr/share/tcltk/tcl8.6/msgs/fo_fo.msg', 'DATA'),
  ('tcl/http1.0/http.tcl', '/usr/share/tcltk/tcl8.6/http1.0/http.tcl', 'DATA'),
  ('tcl/encoding/ebcdic.enc',
   '/usr/share/tcltk/tcl8.6/encoding/ebcdic.enc',
   'DATA'),
  ('tcl/tcl8/platform-1.0.14.tm',
   '/usr/share/tcltk/tcl8.6/tcl8/platform-1.0.14.tm',
   'DATA'),
  ('tcl/encoding/euc-jp.enc',
   '/usr/share/tcltk/tcl8.6/encoding/euc-jp.enc',
   'DATA'),
  ('tcl/msgs/lt.msg', '/usr/share/tcltk/tcl8.6/msgs/lt.msg', 'DATA'),
  ('share/glib-2.0/schemas/org.gnome.Evolution.DefaultSources.gschema.xml',
   '/usr/share/glib-2.0/schemas/org.gnome.Evolution.DefaultSources.gschema.xml',
   'DATA'),
  ('tcl/encoding/iso8859-7.enc',
   '/usr/share/tcltk/tcl8.6/encoding/iso8859-7.enc',
   'DATA'),
  ('tcl/msgs/pl.msg', '/usr/share/tcltk/tcl8.6/msgs/pl.msg', 'DATA'),
  ('tcl/encoding/cp862.enc',
   '/usr/share/tcltk/tcl8.6/encoding/cp862.enc',
   'DATA'),
  ('share/glib-2.0/schemas/org.gnome.desktop.screensaver.gschema.xml',
   '/usr/share/glib-2.0/schemas/org.gnome.desktop.screensaver.gschema.xml',
   'DATA'),
  ('share/glib-2.0/schemas/org.gnome.settings-daemon.peripherals.gschema.xml',
   '/usr/share/glib-2.0/schemas/org.gnome.settings-daemon.peripherals.gschema.xml',
   'DATA'),
  ('share/glib-2.0/schemas/org.gnome.login-screen.gschema.xml',
   '/usr/share/glib-2.0/schemas/org.gnome.login-screen.gschema.xml',
   'DATA'),
  ('tcl/encoding/euc-kr.enc',
   '/usr/share/tcltk/tcl8.6/encoding/euc-kr.enc',
   'DATA'),
  ('tcl/msgs/nn.msg', '/usr/share/tcltk/tcl8.6/msgs/nn.msg', 'DATA'),
  ('tcl/tcl8/tcltest-2.5.1.tm',
   '/usr/share/tcltk/tcl8.6/tcl8/tcltest-2.5.1.tm',
   'DATA'),
  ('tk/images/logo64.gif', '/usr/share/tcltk/tk8.6/images/logo64.gif', 'DATA'),
  ('tk/tclIndex', '/usr/share/tcltk/tk8.6/tclIndex', 'DATA'),
  ('share/glib-2.0/schemas/org.freedesktop.Tracker.Extract.gschema.xml',
   '/usr/share/glib-2.0/schemas/org.freedesktop.Tracker.Extract.gschema.xml',
   'DATA'),
  ('share/glib-2.0/schemas/org.gnome.settings-daemon.plugins.datetime.gschema.xml',
   '/usr/share/glib-2.0/schemas/org.gnome.settings-daemon.plugins.datetime.gschema.xml',
   'DATA'),
  ('tcl/encoding/macUkraine.enc',
   '/usr/share/tcltk/tcl8.6/encoding/macUkraine.enc',
   'DATA'),
  ('tcl/encoding/macDingbats.enc',
   '/usr/share/tcltk/tcl8.6/encoding/macDingbats.enc',
   'DATA'),
  ('tk/ttk/spinbox.tcl', '/usr/share/tcltk/tk8.6/ttk/spinbox.tcl', 'DATA'),
  ('tk/ttk/combobox.tcl', '/usr/share/tcltk/tk8.6/ttk/combobox.tcl', 'DATA'),
  ('share/glib-2.0/schemas/org.gnome.settings-daemon.plugins.media-keys.gschema.xml',
   '/usr/share/glib-2.0/schemas/org.gnome.settings-daemon.plugins.media-keys.gschema.xml',
   'DATA'),
  ('tcl/encoding/jis0212.enc',
   '/usr/share/tcltk/tcl8.6/encoding/jis0212.enc',
   'DATA'),
  ('share/glib-2.0/schemas/org.gnome.settings-daemon.plugins.color.gschema.xml',
   '/usr/share/glib-2.0/schemas/org.gnome.settings-daemon.plugins.color.gschema.xml',
   'DATA'),
  ('tcl/msgs/pt_br.msg', '/usr/share/tcltk/tcl8.6/msgs/pt_br.msg', 'DATA'),
  ('tcl/msgs/fa_in.msg', '/usr/share/tcltk/tcl8.6/msgs/fa_in.msg', 'DATA'),
  ('tcl/encoding/cp1258.enc',
   '/usr/share/tcltk/tcl8.6/encoding/cp1258.enc',
   'DATA'),
  ('tcl/encoding/dingbats.enc',
   '/usr/share/tcltk/tcl8.6/encoding/dingbats.enc',
   'DATA'),
  ('tcl/msgs/gl_es.msg', '/usr/share/tcltk/tcl8.6/msgs/gl_es.msg', 'DATA'),
  ('share/glib-2.0/schemas/org.gnome.GWeather.enums.xml',
   '/usr/share/glib-2.0/schemas/org.gnome.GWeather.enums.xml',
   'DATA'),
  ('tcl/encoding/cp949.enc',
   '/usr/share/tcltk/tcl8.6/encoding/cp949.enc',
   'DATA'),
  ('tcl/encoding/cp866.enc',
   '/usr/share/tcltk/tcl8.6/encoding/cp866.enc',
   'DATA'),
  ('tcl/encoding/symbol.enc',
   '/usr/share/tcltk/tcl8.6/encoding/symbol.enc',
   'DATA'),
  ('share/glib-2.0/schemas/org.gnome.ControlCenter.gschema.xml',
   '/usr/share/glib-2.0/schemas/org.gnome.ControlCenter.gschema.xml',
   'DATA'),
  ('tcl/msgs/zh.msg', '/usr/share/tcltk/tcl8.6/msgs/zh.msg', 'DATA'),
  ('tcl/encoding/cp874.enc',
   '/usr/share/tcltk/tcl8.6/encoding/cp874.enc',
   'DATA'),
  ('tcl/msgs/fr_be.msg', '/usr/share/tcltk/tcl8.6/msgs/fr_be.msg', 'DATA'),
  ('tcl/msgs/kl.msg', '/usr/share/tcltk/tcl8.6/msgs/kl.msg', 'DATA'),
  ('tcl/encoding/macRoman.enc',
   '/usr/share/tcltk/tcl8.6/encoding/macRoman.enc',
   'DATA'),
  ('share/glib-2.0/schemas/org.gnome.mousetweaks.gschema.xml',
   '/usr/share/glib-2.0/schemas/org.gnome.mousetweaks.gschema.xml',
   'DATA'),
  ('tcl/msgs/sk.msg', '/usr/share/tcltk/tcl8.6/msgs/sk.msg', 'DATA'),
  ('share/glib-2.0/schemas/org.freedesktop.ColorHelper.gschema.xml',
   '/usr/share/glib-2.0/schemas/org.freedesktop.ColorHelper.gschema.xml',
   'DATA'),
  ('tk/panedwindow.tcl', '/usr/share/tcltk/tk8.6/panedwindow.tcl', 'DATA'),
  ('tcl/msgs/fr.msg', '/usr/share/tcltk/tcl8.6/msgs/fr.msg', 'DATA'),
  ('tcl/encoding/koi8-u.enc',
   '/usr/share/tcltk/tcl8.6/encoding/koi8-u.enc',
   'DATA'),
  ('share/glib-2.0/schemas/org.freedesktop.Tracker.enums.xml',
   '/usr/share/glib-2.0/schemas/org.freedesktop.Tracker.enums.xml',
   'DATA'),
  ('tcl/msgs/sq.msg', '/usr/share/tcltk/tcl8.6/msgs/sq.msg', 'DATA'),
  ('tcl/msgs/it.msg', '/usr/share/tcltk/tcl8.6/msgs/it.msg', 'DATA'),
  ('share/glib-2.0/schemas/org.gnome.desktop.enums.xml',
   '/usr/share/glib-2.0/schemas/org.gnome.desktop.enums.xml',
   'DATA'),
  ('tcl/encoding/iso8859-14.enc',
   '/usr/share/tcltk/tcl8.6/encoding/iso8859-14.enc',
   'DATA'),
  ('share/glib-2.0/schemas/com.ubuntu.update-manager.gschema.xml',
   '/usr/share/glib-2.0/schemas/com.ubuntu.update-manager.gschema.xml',
   'DATA'),
  ('tk/ttk/button.tcl', '/usr/share/tcltk/tk8.6/ttk/button.tcl', 'DATA'),
  ('tcl/encoding/iso8859-8.enc',
   '/usr/share/tcltk/tcl8.6/encoding/iso8859-8.enc',
   'DATA'),
  ('share/glib-2.0/schemas/org.freedesktop.Tracker.DB.gschema.xml',
   '/usr/share/glib-2.0/schemas/org.freedesktop.Tracker.DB.gschema.xml',
   'DATA'),
  ('tk/images/pwrdLogo100.gif',
   '/usr/share/tcltk/tk8.6/images/pwrdLogo100.gif',
   'DATA'),
  ('share/glib-2.0/schemas/org.gnome.gedit.plugins.filebrowser.enums.xml',
   '/usr/share/glib-2.0/schemas/org.gnome.gedit.plugins.filebrowser.enums.xml',
   'DATA'),
  ('tcl/msgs/ms_my.msg', '/usr/share/tcltk/tcl8.6/msgs/ms_my.msg', 'DATA'),
  ('tcl/msgs/kok_in.msg', '/usr/share/tcltk/tcl8.6/msgs/kok_in.msg', 'DATA'),
  ('gi_typelibs/GObject-2.0.typelib',
   '/usr/lib/x86_64-linux-gnu/girepository-1.0/GObject-2.0.typelib',
   'DATA'),
  ('tcl/encoding/gb12345.enc',
   '/usr/share/tcltk/tcl8.6/encoding/gb12345.enc',
   'DATA'),
  ('tk/text.tcl', '/usr/share/tcltk/tk8.6/text.tcl', 'DATA'),
  ('tk/tkAppInit.c', '/usr/share/tcltk/tk8.6/tkAppInit.c', 'DATA'),
  ('tcl/msgs/en_be.msg', '/usr/share/tcltk/tcl8.6/msgs/en_be.msg', 'DATA'),
  ('share/glib-2.0/schemas/org.gnome.desktop.background.gschema.xml',
   '/usr/share/glib-2.0/schemas/org.gnome.desktop.background.gschema.xml',
   'DATA'),
  ('tcl/msgs/ar_sy.msg', '/usr/share/tcltk/tcl8.6/msgs/ar_sy.msg', 'DATA'),
  ('tcl/msgs/sl.msg', '/usr/share/tcltk/tcl8.6/msgs/sl.msg', 'DATA'),
  ('tcl/msgs/he.msg', '/usr/share/tcltk/tcl8.6/msgs/he.msg', 'DATA'),
  ('share/glib-2.0/schemas/org.gnome.system.locale.gschema.xml',
   '/usr/share/glib-2.0/schemas/org.gnome.system.locale.gschema.xml',
   'DATA'),
  ('share/glib-2.0/schemas/org.gnome.shell.extensions.dash-to-dock.gschema.xml',
   '/usr/share/glib-2.0/schemas/org.gnome.shell.extensions.dash-to-dock.gschema.xml',
   'DATA'),
  ('tcl/encoding/gb1988.enc',
   '/usr/share/tcltk/tcl8.6/encoding/gb1988.enc',
   'DATA'),
  ('share/glib-2.0/schemas/org.gnome.gedit.plugins.filebrowser.gschema.xml',
   '/usr/share/glib-2.0/schemas/org.gnome.gedit.plugins.filebrowser.gschema.xml',
   'DATA'),
  ('tcl/encoding/iso2022.enc',
   '/usr/share/tcltk/tcl8.6/encoding/iso2022.enc',
   'DATA'),
  ('tk/entry.tcl', '/usr/share/tcltk/tk8.6/entry.tcl', 'DATA'),
  ('share/glib-2.0/schemas/org.gnome.gnome-screenshot.gschema.xml',
   '/usr/share/glib-2.0/schemas/org.gnome.gnome-screenshot.gschema.xml',
   'DATA'),
  ('tk/ttk/ttk.tcl', '/usr/share/tcltk/tk8.6/ttk/ttk.tcl', 'DATA'),
  ('tcl/encoding/macIceland.enc',
   '/usr/share/tcltk/tcl8.6/encoding/macIceland.enc',
   'DATA'),
  ('share/glib-2.0/schemas/org.gtk.Settings.Debug.gschema.xml',
   '/usr/share/glib-2.0/schemas/org.gtk.Settings.Debug.gschema.xml',
   'DATA'),
  ('tcl/tcl8/msgcat-1.6.1.tm',
   '/usr/share/tcltk/tcl8.6/tcl8/msgcat-1.6.1.tm',
   'DATA'),
  ('tcl/msgs/gv_gb.msg', '/usr/share/tcltk/tcl8.6/msgs/gv_gb.msg', 'DATA'),
  ('share/glib-2.0/schemas/org.freedesktop.ibus.gschema.xml',
   '/usr/share/glib-2.0/schemas/org.freedesktop.ibus.gschema.xml',
   'DATA'),
  ('tcl/msgs/fo.msg', '/usr/share/tcltk/tcl8.6/msgs/fo.msg', 'DATA'),
  ('tcl/msgs/en_bw.msg', '/usr/share/tcltk/tcl8.6/msgs/en_bw.msg', 'DATA'),
  ('share/gstreamer-1.0/presets/GstIirEqualizer10Bands.prs',
   '/usr/share/gstreamer-1.0/presets/GstIirEqualizer10Bands.prs',
   'DATA'),
  ('share/glib-2.0/schemas/org.gnome.Characters.gschema.xml',
   '/usr/share/glib-2.0/schemas/org.gnome.Characters.gschema.xml',
   'DATA'),
  ('tcl/msgs/es_ni.msg', '/usr/share/tcltk/tcl8.6/msgs/es_ni.msg', 'DATA'),
  ('share/glib-2.0/schemas/com.ubuntu.phone.gschema.xml',
   '/usr/share/glib-2.0/schemas/com.ubuntu.phone.gschema.xml',
   'DATA'),
  ('tcl/tcl8/http-2.9.1.tm',
   '/usr/share/tcltk/tcl8.6/tcl8/http-2.9.1.tm',
   'DATA'),
  ('share/glib-2.0/schemas/org.gnome.system.smb.gschema.xml',
   '/usr/share/glib-2.0/schemas/org.gnome.system.smb.gschema.xml',
   'DATA'),
  ('share/glib-2.0/schemas/org.gnome.crypto.pgp.gschema.xml',
   '/usr/share/glib-2.0/schemas/org.gnome.crypto.pgp.gschema.xml',
   'DATA'),
  ('tcl/encoding/cp1256.enc',
   '/usr/share/tcltk/tcl8.6/encoding/cp1256.enc',
   'DATA'),
  ('tk/xmfbox.tcl', '/usr/share/tcltk/tk8.6/xmfbox.tcl', 'DATA'),
  ('tcl/msgs/ar.msg', '/usr/share/tcltk/tcl8.6/msgs/ar.msg', 'DATA'),
  ('share/glib-2.0/schemas/org.gtk.Settings.FileChooser.gschema.xml',
   '/usr/share/glib-2.0/schemas/org.gtk.Settings.FileChooser.gschema.xml',
   'DATA'),
  ('share/glib-2.0/schemas/org.gnome.desktop.interface.gschema.xml',
   '/usr/share/glib-2.0/schemas/org.gnome.desktop.interface.gschema.xml',
   'DATA'),
  ('share/glib-2.0/schemas/org.gtk.Settings.ColorChooser.gschema.xml',
   '/usr/share/glib-2.0/schemas/org.gtk.Settings.ColorChooser.gschema.xml',
   'DATA'),
  ('tcl/msgs/fr_ca.msg', '/usr/share/tcltk/tcl8.6/msgs/fr_ca.msg', 'DATA'),
  ('share/glib-2.0/schemas/org.freedesktop.Tracker.gschema.xml',
   '/usr/share/glib-2.0/schemas/org.freedesktop.Tracker.gschema.xml',
   'DATA'),
  ('tcl/msgs/zh_cn.msg', '/usr/share/tcltk/tcl8.6/msgs/zh_cn.msg', 'DATA'),
  ('share/glib-2.0/schemas/00_org.gnome.shell.gschema.override',
   '/usr/share/glib-2.0/schemas/00_org.gnome.shell.gschema.override',
   'DATA'),
  ('share/glib-2.0/schemas/org.gnome.evolution-data-server.addressbook.gschema.xml',
   '/usr/share/glib-2.0/schemas/org.gnome.evolution-data-server.addressbook.gschema.xml',
   'DATA'),
  ('tcl/init.tcl', '/usr/share/tcltk/tcl8.6/init.tcl', 'DATA'),
  ('tcl/encoding/cp936.enc',
   '/usr/share/tcltk/tcl8.6/encoding/cp936.enc',
   'DATA'),
  ('tcl/msgs/ja.msg', '/usr/share/tcltk/tcl8.6/msgs/ja.msg', 'DATA'),
  ('tcl/msgs/sw.msg', '/usr/share/tcltk/tcl8.6/msgs/sw.msg', 'DATA'),
  ('tk/ttk/scale.tcl', '/usr/share/tcltk/tk8.6/ttk/scale.tcl', 'DATA'),
  ('share/mime/mime.cache', '/usr/share/mime/mime.cache', 'DATA'),
  ('tk/spinbox.tcl', '/usr/share/tcltk/tk8.6/spinbox.tcl', 'DATA'),
  ('tcl/msgs/hu.msg', '/usr/share/tcltk/tcl8.6/msgs/hu.msg', 'DATA'),
  ('share/glib-2.0/schemas/org.gnome.desktop.calendar.gschema.xml',
   '/usr/share/glib-2.0/schemas/org.gnome.desktop.calendar.gschema.xml',
   'DATA'),
  ('tk/ttk/panedwindow.tcl',
   '/usr/share/tcltk/tk8.6/ttk/panedwindow.tcl',
   'DATA'),
  ('tk/scale.tcl', '/usr/share/tcltk/tk8.6/scale.tcl', 'DATA'),
  ('gi_typelibs/GLib-2.0.typelib',
   '/usr/lib/x86_64-linux-gnu/girepository-1.0/GLib-2.0.typelib',
   'DATA'),
  ('tcl/msgs/fi.msg', '/usr/share/tcltk/tcl8.6/msgs/fi.msg', 'DATA'),
  ('share/glib-2.0/schemas/org.freedesktop.Tracker.FTS.gschema.xml',
   '/usr/share/glib-2.0/schemas/org.freedesktop.Tracker.FTS.gschema.xml',
   'DATA'),
  ('tcl/msgs/en_zw.msg', '/usr/share/tcltk/tcl8.6/msgs/en_zw.msg', 'DATA'),
  ('tcl/msgs/id.msg', '/usr/share/tcltk/tcl8.6/msgs/id.msg', 'DATA'),
  ('share/glib-2.0/schemas/com.ubuntu.touch.system.gschema.xml',
   '/usr/share/glib-2.0/schemas/com.ubuntu.touch.system.gschema.xml',
   'DATA'),
  ('tcl/encoding/jis0208.enc',
   '/usr/share/tcltk/tcl8.6/encoding/jis0208.enc',
   'DATA'),
  ('share/glib-2.0/schemas/com.ubuntu.update-notifier.gschema.xml',
   '/usr/share/glib-2.0/schemas/com.ubuntu.update-notifier.gschema.xml',
   'DATA'),
  ('tcl/encoding/iso2022-jp.enc',
   '/usr/share/tcltk/tcl8.6/encoding/iso2022-jp.enc',
   'DATA'),
  ('tk/dialog.tcl', '/usr/share/tcltk/tk8.6/dialog.tcl', 'DATA'),
  ('tcl/opt0.4/optparse.tcl',
   '/usr/share/tcltk/tcl8.6/opt0.4/optparse.tcl',
   'DATA'),
  ('tcl/msgs/en_hk.msg', '/usr/share/tcltk/tcl8.6/msgs/en_hk.msg', 'DATA'),
  ('tcl/encoding/cp1254.enc',
   '/usr/share/tcltk/tcl8.6/encoding/cp1254.enc',
   'DATA'),
  ('tcl/msgs/ca.msg', '/usr/share/tcltk/tcl8.6/msgs/ca.msg', 'DATA'),
  ('tcl/encoding/gb2312-raw.enc',
   '/usr/share/tcltk/tcl8.6/encoding/gb2312-raw.enc',
   'DATA'),
  ('tcl/msgs/en_ph.msg', '/usr/share/tcltk/tcl8.6/msgs/en_ph.msg', 'DATA'),
  ('share/glib-2.0/schemas/org.gnome.desktop.notifications.gschema.xml',
   '/usr/share/glib-2.0/schemas/org.gnome.desktop.notifications.gschema.xml',
   'DATA'),
  ('share/glib-2.0/schemas/org.gnome.mutter.wayland.gschema.xml',
   '/usr/share/glib-2.0/schemas/org.gnome.mutter.wayland.gschema.xml',
   'DATA'),
  ('share/glib-2.0/schemas/org.gnome.desktop.a11y.keyboard.gschema.xml',
   '/usr/share/glib-2.0/schemas/org.gnome.desktop.a11y.keyboard.gschema.xml',
   'DATA'),
  ('tcl/encoding/cp861.enc',
   '/usr/share/tcltk/tcl8.6/encoding/cp861.enc',
   'DATA'),
  ('tk/ttk/defaults.tcl', '/usr/share/tcltk/tk8.6/ttk/defaults.tcl', 'DATA'),
  ('share/glib-2.0/schemas/org.gnome.Evince.gschema.xml',
   '/usr/share/glib-2.0/schemas/org.gnome.Evince.gschema.xml',
   'DATA'),
  ('tcl/msgs/it_ch.msg', '/usr/share/tcltk/tcl8.6/msgs/it_ch.msg', 'DATA'),
  ('tcl/encoding/cp869.enc',
   '/usr/share/tcltk/tcl8.6/encoding/cp869.enc',
   'DATA'),
  ('tcl/tclIndex', '/usr/share/tcltk/tcl8.6/tclIndex', 'DATA'),
  ('tcl/msgs/ta.msg', '/usr/share/tcltk/tcl8.6/msgs/ta.msg', 'DATA'),
  ('tk/button.tcl', '/usr/share/tcltk/tk8.6/button.tcl', 'DATA'),
  ('tk/ttk/clamTheme.tcl', '/usr/share/tcltk/tk8.6/ttk/clamTheme.tcl', 'DATA'),
  ('tk/images/logoMed.gif',
   '/usr/share/tcltk/tk8.6/images/logoMed.gif',
   'DATA'),
  ('tk/ttk/progress.tcl', '/usr/share/tcltk/tk8.6/ttk/progress.tcl', 'DATA'),
  ('tcl/msgs/eu_es.msg', '/usr/share/tcltk/tcl8.6/msgs/eu_es.msg', 'DATA'),
  ('tcl/msgs/da.msg', '/usr/share/tcltk/tcl8.6/msgs/da.msg', 'DATA'),
  ('tcl/encoding/cp1257.enc',
   '/usr/share/tcltk/tcl8.6/encoding/cp1257.enc',
   'DATA'),
  ('tcl/msgs/ga.msg', '/usr/share/tcltk/tcl8.6/msgs/ga.msg', 'DATA'),
  ('tcl/encoding/iso8859-3.enc',
   '/usr/share/tcltk/tcl8.6/encoding/iso8859-3.enc',
   'DATA'),
  ('share/glib-2.0/schemas/org.freedesktop.Tracker.Store.gschema.xml',
   '/usr/share/glib-2.0/schemas/org.freedesktop.Tracker.Store.gschema.xml',
   'DATA'),
  ('tk/safetk.tcl', '/usr/share/tcltk/tk8.6/safetk.tcl', 'DATA'),
  ('tk/ttk/menubutton.tcl',
   '/usr/share/tcltk/tk8.6/ttk/menubutton.tcl',
   'DATA'),
  ('share/glib-2.0/schemas/org.gnome.desktop.a11y.gschema.xml',
   '/usr/share/glib-2.0/schemas/org.gnome.desktop.a11y.gschema.xml',
   'DATA'),
  ('share/glib-2.0/schemas/org.gnome.yelp.gschema.xml',
   '/usr/share/glib-2.0/schemas/org.gnome.yelp.gschema.xml',
   'DATA'),
  ('tcl/msgs/vi.msg', '/usr/share/tcltk/tcl8.6/msgs/vi.msg', 'DATA'),
  ('tk/ttk/vistaTheme.tcl',
   '/usr/share/tcltk/tk8.6/ttk/vistaTheme.tcl',
   'DATA'),
  ('tcl/msgs/es.msg', '/usr/share/tcltk/tcl8.6/msgs/es.msg', 'DATA'),
  ('share/glib-2.0/schemas/org.gnome.seahorse.gschema.xml',
   '/usr/share/glib-2.0/schemas/org.gnome.seahorse.gschema.xml',
   'DATA'),
  ('tcl/msgs/sr.msg', '/usr/share/tcltk/tcl8.6/msgs/sr.msg', 'DATA'),
  ('share/glib-2.0/schemas/org.gnome.gedit.plugins.externaltools.gschema.xml',
   '/usr/share/glib-2.0/schemas/org.gnome.gedit.plugins.externaltools.gschema.xml',
   'DATA'),
  ('tcl/msgs/sh.msg', '/usr/share/tcltk/tcl8.6/msgs/sh.msg', 'DATA'),
  ('tcl/msgs/es_mx.msg', '/usr/share/tcltk/tcl8.6/msgs/es_mx.msg', 'DATA'),
  ('tcl/encoding/cp864.enc',
   '/usr/share/tcltk/tcl8.6/encoding/cp864.enc',
   'DATA'),
  ('tcl/package.tcl', '/usr/share/tcltk/tcl8.6/package.tcl', 'DATA'),
  ('tcl/encoding/macJapan.enc',
   '/usr/share/tcltk/tcl8.6/encoding/macJapan.enc',
   'DATA'),
  ('tcl/encoding/cp1255.enc',
   '/usr/share/tcltk/tcl8.6/encoding/cp1255.enc',
   'DATA'),
  ('share/glib-2.0/schemas/10_gnome-shell.gschema.override',
   '/usr/share/glib-2.0/schemas/10_gnome-shell.gschema.override',
   'DATA'),
  ('tcl/msgs/ar_jo.msg', '/usr/share/tcltk/tcl8.6/msgs/ar_jo.msg', 'DATA'),
  ('tcl/clock.tcl', '/usr/share/tcltk/tcl8.6/clock.tcl', 'DATA'),
  ('tcl/msgs/af.msg', '/usr/share/tcltk/tcl8.6/msgs/af.msg', 'DATA'),
  ('share/glib-2.0/schemas/org.gnome.desktop.media-handling.gschema.xml',
   '/usr/share/glib-2.0/schemas/org.gnome.desktop.media-handling.gschema.xml',
   'DATA'),
  ('tk/optMenu.tcl', '/usr/share/tcltk/tk8.6/optMenu.tcl', 'DATA'),
  ('tcl/msgs/bn.msg', '/usr/share/tcltk/tcl8.6/msgs/bn.msg', 'DATA'),
  ('tcl/msgs/th.msg', '/usr/share/tcltk/tcl8.6/msgs/th.msg', 'DATA'),
  ('gi_typelibs/Gio-2.0.typelib',
   '/usr/lib/x86_64-linux-gnu/girepository-1.0/Gio-2.0.typelib',
   'DATA'),
  ('tk/msgs/eo.msg', '/usr/share/tcltk/tk8.6/msgs/eo.msg', 'DATA'),
  ('tk/clrpick.tcl', '/usr/share/tcltk/tk8.6/clrpick.tcl', 'DATA'),
  ('tk/msgs/hu.msg', '/usr/share/tcltk/tk8.6/msgs/hu.msg', 'DATA'),
  ('tk/msgbox.tcl', '/usr/share/tcltk/tk8.6/msgbox.tcl', 'DATA'),
  ('tk/bgerror.tcl', '/usr/share/tcltk/tk8.6/bgerror.tcl', 'DATA'),
  ('share/glib-2.0/schemas/org.gnome.system.location.gschema.xml',
   '/usr/share/glib-2.0/schemas/org.gnome.system.location.gschema.xml',
   'DATA'),
  ('tcl/msgs/et.msg', '/usr/share/tcltk/tcl8.6/msgs/et.msg', 'DATA'),
  ('share/glib-2.0/schemas/org.gnome.settings-daemon.plugins.sharing.gschema.xml',
   '/usr/share/glib-2.0/schemas/org.gnome.settings-daemon.plugins.sharing.gschema.xml',
   'DATA'),
  ('tk/images/tai-ku.gif', '/usr/share/tcltk/tk8.6/images/tai-ku.gif', 'DATA'),
  ('share/glib-2.0/schemas/org.freedesktop.Tracker.Writeback.gschema.xml',
   '/usr/share/glib-2.0/schemas/org.freedesktop.Tracker.Writeback.gschema.xml',
   'DATA'),
  ('tcl/msgs/ms.msg', '/usr/share/tcltk/tcl8.6/msgs/ms.msg', 'DATA'),
  ('tk/comdlg.tcl', '/usr/share/tcltk/tk8.6/comdlg.tcl', 'DATA'),
  ('share/glib-2.0/schemas/org.gnome.desktop.search-providers.gschema.xml',
   '/usr/share/glib-2.0/schemas/org.gnome.desktop.search-providers.gschema.xml',
   'DATA'),
  ('tcl/msgs/tr.msg', '/usr/share/tcltk/tcl8.6/msgs/tr.msg', 'DATA'),
  ('share/glib-2.0/schemas/org.gnome.gedit.plugins.spell.gschema.xml',
   '/usr/share/glib-2.0/schemas/org.gnome.gedit.plugins.spell.gschema.xml',
   'DATA'),
  ('tk/megawidget.tcl', '/usr/share/tcltk/tk8.6/megawidget.tcl', 'DATA'),
  ('tk/iconlist.tcl', '/usr/share/tcltk/tk8.6/iconlist.tcl', 'DATA'),
  ('share/glib-2.0/schemas/org.gnome.eog.gschema.xml',
   '/usr/share/glib-2.0/schemas/org.gnome.eog.gschema.xml',
   'DATA'),
  ('tcl/msgs/zh_sg.msg', '/usr/share/tcltk/tcl8.6/msgs/zh_sg.msg', 'DATA'),
  ('share/glib-2.0/schemas/org.gnome.desktop.input-sources.gschema.xml',
   '/usr/share/glib-2.0/schemas/org.gnome.desktop.input-sources.gschema.xml',
   'DATA'),
  ('tcl/msgs/en_ca.msg', '/usr/share/tcltk/tcl8.6/msgs/en_ca.msg', 'DATA'),
  ('share/glib-2.0/schemas/org.gnome.gnome-system-monitor.enums.xml',
   '/usr/share/glib-2.0/schemas/org.gnome.gnome-system-monitor.enums.xml',
   'DATA'),
  ('tcl/encoding/cp950.enc',
   '/usr/share/tcltk/tcl8.6/encoding/cp950.enc',
   'DATA'),
  ('share/glib-2.0/schemas/org.gnome.Cheese.gschema.xml',
   '/usr/share/glib-2.0/schemas/org.gnome.Cheese.gschema.xml',
   'DATA'),
  ('share/glib-2.0/schemas/org.gnome.settings-daemon.plugins.orientation.gschema.xml',
   '/usr/share/glib-2.0/schemas/org.gnome.settings-daemon.plugins.orientation.gschema.xml',
   'DATA'),
  ('tcl/encoding/iso8859-10.enc',
   '/usr/share/tcltk/tcl8.6/encoding/iso8859-10.enc',
   'DATA'),
  ('share/glib-2.0/schemas/org.gnome.seahorse.manager.gschema.xml',
   '/usr/share/glib-2.0/schemas/org.gnome.seahorse.manager.gschema.xml',
   'DATA'),
  ('tk/msgs/en_gb.msg', '/usr/share/tcltk/tk8.6/msgs/en_gb.msg', 'DATA'),
  ('tcl/encoding/iso8859-13.enc',
   '/usr/share/tcltk/tcl8.6/encoding/iso8859-13.enc',
   'DATA'),
  ('tcl/msgs/en_za.msg', '/usr/share/tcltk/tcl8.6/msgs/en_za.msg', 'DATA'),
  ('tk/tearoff.tcl', '/usr/share/tcltk/tk8.6/tearoff.tcl', 'DATA'),
  ('tcl/msgs/be.msg', '/usr/share/tcltk/tcl8.6/msgs/be.msg', 'DATA'),
  ('tcl/msgs/es_gt.msg', '/usr/share/tcltk/tcl8.6/msgs/es_gt.msg', 'DATA'),
  ('tcl/msgs/es_cr.msg', '/usr/share/tcltk/tcl8.6/msgs/es_cr.msg', 'DATA'),
  ('tcl/msgs/kok.msg', '/usr/share/tcltk/tcl8.6/msgs/kok.msg', 'DATA'),
  ('tk/choosedir.tcl', '/usr/share/tcltk/tk8.6/choosedir.tcl', 'DATA'),
  ('share/glib-2.0/schemas/10_gnome-terminal.gschema.override',
   '/usr/share/glib-2.0/schemas/10_gnome-terminal.gschema.override',
   'DATA'),
  ('share/glib-2.0/schemas/org.gnome.SessionManager.gschema.xml',
   '/usr/share/glib-2.0/schemas/org.gnome.SessionManager.gschema.xml',
   'DATA'),
  ('tcl/msgs/sv.msg', '/usr/share/tcltk/tcl8.6/msgs/sv.msg', 'DATA'),
  ('tcl/encoding/koi8-r.enc',
   '/usr/share/tcltk/tcl8.6/encoding/koi8-r.enc',
   'DATA'),
  ('tcl/encoding/macCyrillic.enc',
   '/usr/share/tcltk/tcl8.6/encoding/macCyrillic.enc',
   'DATA'),
  ('tcl/encoding/cp852.enc',
   '/usr/share/tcltk/tcl8.6/encoding/cp852.enc',
   'DATA'),
  ('tcl/msgs/en_nz.msg', '/usr/share/tcltk/tcl8.6/msgs/en_nz.msg', 'DATA'),
  ('share/glib-2.0/schemas/org.gnome.eog.enums.xml',
   '/usr/share/glib-2.0/schemas/org.gnome.eog.enums.xml',
   'DATA'),
  ('share/glib-2.0/schemas/org.gnome.Terminal.gschema.xml',
   '/usr/share/glib-2.0/schemas/org.gnome.Terminal.gschema.xml',
   'DATA'),
  ('tcl/encoding/ksc5601.enc',
   '/usr/share/tcltk/tcl8.6/encoding/ksc5601.enc',
   'DATA'),
  ('share/glib-2.0/schemas/org.gnome.settings-daemon.plugins.wwan.gschema.xml',
   '/usr/share/glib-2.0/schemas/org.gnome.settings-daemon.plugins.wwan.gschema.xml',
   'DATA'),
  ('tcl/msgs/eo.msg', '/usr/share/tcltk/tcl8.6/msgs/eo.msg', 'DATA'),
  ('share/glib-2.0/schemas/org.gnome.settings-daemon.plugins.power.gschema.xml',
   '/usr/share/glib-2.0/schemas/org.gnome.settings-daemon.plugins.power.gschema.xml',
   'DATA'),
  ('tcl/encoding/cp855.enc',
   '/usr/share/tcltk/tcl8.6/encoding/cp855.enc',
   'DATA'),
  ('tcl/msgs/en_in.msg', '/usr/share/tcltk/tcl8.6/msgs/en_in.msg', 'DATA'),
  ('share/glib-2.0/schemas/org.gnome.desktop.datetime.gschema.xml',
   '/usr/share/glib-2.0/schemas/org.gnome.desktop.datetime.gschema.xml',
   'DATA'),
  ('tk/ttk/fonts.tcl', '/usr/share/tcltk/tk8.6/ttk/fonts.tcl', 'DATA'),
  ('share/glib-2.0/schemas/org.gnome.shell.extensions.desktop-icons.gschema.xml',
   '/usr/share/glib-2.0/schemas/org.gnome.shell.extensions.desktop-icons.gschema.xml',
   'DATA'),
  ('share/glib-2.0/schemas/org.gnome.desktop.thumbnail-cache.gschema.xml',
   '/usr/share/glib-2.0/schemas/org.gnome.desktop.thumbnail-cache.gschema.xml',
   'DATA'),
  ('share/glib-2.0/schemas/org.gnome.system.gvfs.enums.xml',
   '/usr/share/glib-2.0/schemas/org.gnome.system.gvfs.enums.xml',
   'DATA'),
  ('share/glib-2.0/schemas/com.ubuntu.notifications.settings.gschema.xml',
   '/usr/share/glib-2.0/schemas/com.ubuntu.notifications.settings.gschema.xml',
   'DATA'),
  ('share/glib-2.0/schemas/org.freedesktop.Tracker.Miner.Files.gschema.xml',
   '/usr/share/glib-2.0/schemas/org.freedesktop.Tracker.Miner.Files.gschema.xml',
   'DATA'),
  ('tcl/msgs/hi_in.msg', '/usr/share/tcltk/tcl8.6/msgs/hi_in.msg', 'DATA'),
  ('share/glib-2.0/schemas/com.canonical.Unity.Lenses.gschema.xml',
   '/usr/share/glib-2.0/schemas/com.canonical.Unity.Lenses.gschema.xml',
   'DATA'),
  ('share/gstreamer-1.0/presets/GstIirEqualizer3Bands.prs',
   '/usr/share/gstreamer-1.0/presets/GstIirEqualizer3Bands.prs',
   'DATA'),
  ('share/glib-2.0/schemas/org.gnome.desktop.default-applications.gschema.xml',
   '/usr/share/glib-2.0/schemas/org.gnome.desktop.default-applications.gschema.xml',
   'DATA'),
  ('tcl/msgs/de_at.msg', '/usr/share/tcltk/tcl8.6/msgs/de_at.msg', 'DATA'),
  ('tcl/msgs/hi.msg', '/usr/share/tcltk/tcl8.6/msgs/hi.msg', 'DATA'),
  ('tcl/history.tcl', '/usr/share/tcltk/tcl8.6/history.tcl', 'DATA'),
  ('tcl/opt0.4/pkgIndex.tcl',
   '/usr/share/tcltk/tcl8.6/opt0.4/pkgIndex.tcl',
   'DATA'),
  ('tcl/encoding/jis0201.enc',
   '/usr/share/tcltk/tcl8.6/encoding/jis0201.enc',
   'DATA'),
  ('tk/ttk/scrollbar.tcl', '/usr/share/tcltk/tk8.6/ttk/scrollbar.tcl', 'DATA'),
  ('share/glib-2.0/schemas/org.gnome.mutter.x11.gschema.xml',
   '/usr/share/glib-2.0/schemas/org.gnome.mutter.x11.gschema.xml',
   'DATA'),
  ('tcl/msgs/de.msg', '/usr/share/tcltk/tcl8.6/msgs/de.msg', 'DATA'),
  ('tk/tkfbox.tcl', '/usr/share/tcltk/tk8.6/tkfbox.tcl', 'DATA'),
  ('tcl/msgs/ar_lb.msg', '/usr/share/tcltk/tcl8.6/msgs/ar_lb.msg', 'DATA'),
  ('tk/images/pwrdLogo.eps',
   '/usr/share/tcltk/tk8.6/images/pwrdLogo.eps',
   'DATA'),
  ('share/glib-2.0/schemas/org.gnome.desktop.a11y.mouse.gschema.xml',
   '/usr/share/glib-2.0/schemas/org.gnome.desktop.a11y.mouse.gschema.xml',
   'DATA'),
  ('tk/msgs/pl.msg', '/usr/share/tcltk/tk8.6/msgs/pl.msg', 'DATA'),
  ('share/glib-2.0/schemas/org.gnome.desktop.wm.keybindings.gschema.xml',
   '/usr/share/glib-2.0/schemas/org.gnome.desktop.wm.keybindings.gschema.xml',
   'DATA'),
  ('tcl/encoding/big5.enc',
   '/usr/share/tcltk/tcl8.6/encoding/big5.enc',
   'DATA'),
  ('share/glib-2.0/schemas/org.gnome.settings-daemon.plugins.keyboard.gschema.xml',
   '/usr/share/glib-2.0/schemas/org.gnome.settings-daemon.plugins.keyboard.gschema.xml',
   'DATA'),
  ('tcl/word.tcl', '/usr/share/tcltk/tcl8.6/word.tcl', 'DATA'),
  ('share/glib-2.0/schemas/org.gnome.evolution-data-server.gschema.xml',
   '/usr/share/glib-2.0/schemas/org.gnome.evolution-data-server.gschema.xml',
   'DATA'),
  ('tk/palette.tcl', '/usr/share/tcltk/tk8.6/palette.tcl', 'DATA'),
  ('tcl/encoding/gb2312.enc',
   '/usr/share/tcltk/tcl8.6/encoding/gb2312.enc',
   'DATA'),
  ('tcl/msgs/mk.msg', '/usr/share/tcltk/tcl8.6/msgs/mk.msg', 'DATA'),
  ('tk/ttk/aquaTheme.tcl', '/usr/share/tcltk/tk8.6/ttk/aquaTheme.tcl', 'DATA'),
  ('share/glib-2.0/schemas/org.gnome.desktop.a11y.magnifier.gschema.xml',
   '/usr/share/glib-2.0/schemas/org.gnome.desktop.a11y.magnifier.gschema.xml',
   'DATA'),
  ('share/glib-2.0/schemas/10_ubuntu-settings.gschema.override',
   '/usr/share/glib-2.0/schemas/10_ubuntu-settings.gschema.override',
   'DATA'),
  ('tcl/msgs/ru.msg', '/usr/share/tcltk/tcl8.6/msgs/ru.msg', 'DATA'),
  ('share/glib-2.0/schemas/org.gnome.settings-daemon.plugins.xrandr.gschema.xml',
   '/usr/share/glib-2.0/schemas/org.gnome.settings-daemon.plugins.xrandr.gschema.xml',
   'DATA'),
  ('tcl/msgs/es_hn.msg', '/usr/share/tcltk/tcl8.6/msgs/es_hn.msg', 'DATA'),
  ('share/glib-2.0/schemas/com.ubuntu.touch.network.gschema.xml',
   '/usr/share/glib-2.0/schemas/com.ubuntu.touch.network.gschema.xml',
   'DATA'),
  ('tcl/msgs/es_bo.msg', '/usr/share/tcltk/tcl8.6/msgs/es_bo.msg', 'DATA'),
  ('share/glib-2.0/schemas/org.gnome.online-accounts.gschema.xml',
   '/usr/share/glib-2.0/schemas/org.gnome.online-accounts.gschema.xml',
   'DATA'),
  ('tk/menu.tcl', '/usr/share/tcltk/tk8.6/menu.tcl', 'DATA'),
  ('pip-20.0.2.egg-info/dependency_links.txt',
   '/usr/lib/python3/dist-packages/pip-20.0.2.egg-info/dependency_links.txt',
   'DATA'),
  ('wheel-0.34.2.egg-info/top_level.txt',
   '/usr/lib/python3/dist-packages/wheel-0.34.2.egg-info/top_level.txt',
   'DATA'),
  ('wheel-0.34.2.egg-info/requires.txt',
   '/usr/lib/python3/dist-packages/wheel-0.34.2.egg-info/requires.txt',
   'DATA'),
  ('wheel-0.34.2.egg-info/entry_points.txt',
   '/usr/lib/python3/dist-packages/wheel-0.34.2.egg-info/entry_points.txt',
   'DATA'),
  ('setuptools-45.2.0.egg-info/dependency_links.txt',
   '/usr/lib/python3/dist-packages/setuptools-45.2.0.egg-info/dependency_links.txt',
   'DATA'),
  ('pip-20.0.2.egg-info/top_level.txt',
   '/usr/lib/python3/dist-packages/pip-20.0.2.egg-info/top_level.txt',
   'DATA'),
  ('setuptools-45.2.0.egg-info/zip-safe',
   '/usr/lib/python3/dist-packages/setuptools-45.2.0.egg-info/zip-safe',
   'DATA'),
  ('wheel-0.34.2.egg-info/PKG-INFO',
   '/usr/lib/python3/dist-packages/wheel-0.34.2.egg-info/PKG-INFO',
   'DATA'),
  ('wheel-0.34.2.egg-info/not-zip-safe',
   '/usr/lib/python3/dist-packages/wheel-0.34.2.egg-info/not-zip-safe',
   'DATA'),
  ('pip-20.0.2.egg-info/PKG-INFO',
   '/usr/lib/python3/dist-packages/pip-20.0.2.egg-info/PKG-INFO',
   'DATA'),
  ('pip-20.0.2.egg-info/not-zip-safe',
   '/usr/lib/python3/dist-packages/pip-20.0.2.egg-info/not-zip-safe',
   'DATA'),
  ('setuptools-45.2.0.egg-info/entry_points.txt',
   '/usr/lib/python3/dist-packages/setuptools-45.2.0.egg-info/entry_points.txt',
   'DATA'),
  ('setuptools-45.2.0.egg-info/PKG-INFO',
   '/usr/lib/python3/dist-packages/setuptools-45.2.0.egg-info/PKG-INFO',
   'DATA'),
  ('wheel-0.34.2.egg-info/dependency_links.txt',
   '/usr/lib/python3/dist-packages/wheel-0.34.2.egg-info/dependency_links.txt',
   'DATA'),
  ('pip-20.0.2.egg-info/entry_points.txt',
   '/usr/lib/python3/dist-packages/pip-20.0.2.egg-info/entry_points.txt',
   'DATA'),
  ('setuptools-45.2.0.egg-info/top_level.txt',
   '/usr/lib/python3/dist-packages/setuptools-45.2.0.egg-info/top_level.txt',
   'DATA')],
 [],
 False,
 False,
 1629989547,
 [('run',
   '/home/ryuta/.local/lib/python3.8/site-packages/PyInstaller/bootloader/Linux-64bit-intel/run',
   'EXECUTABLE')])
